(page_layout
  (setup (textsize 1.5 1.5)(linewidth 0.15)(textlinewidth 0.15)
  (left_margin 10)(right_margin 10)(top_margin 10)(bottom_margin 10))
  (rect (name rect1:Rect) (start 0 0 ltcorner) (end 0 0) (repeat 2) (incrx 2) (incry 2))
  (line (name segm1:Line) (start 50 2 ltcorner) (end 50 0 ltcorner) (repeat 30) (incrx 50))
  (tbtext 1 (name text1:Text) (pos 25 1 ltcorner) (font (size 1.3 1.3)) (repeat 100) (incrx 50))
  (line (name segm2:Line) (start 50 2 lbcorner) (end 50 0 lbcorner) (repeat 30) (incrx 50))
  (tbtext 1 (name text2:Text) (pos 25 1 lbcorner) (font (size 1.3 1.3)) (repeat 100) (incrx 50))
  (line (name segm3:Line) (start 0 50 ltcorner) (end 2 50 ltcorner) (repeat 30) (incry 50))
  (tbtext A (name text3:Text) (pos 1 25 ltcorner) (font (size 1.3 1.3)) (justify center) (repeat 100) (incry 50))
  (line (name segm4:Line) (start 0 50 rtcorner) (end 2 50 rtcorner) (repeat 30) (incry 50))
  (tbtext Cátedra: (name text4:Text) (pos 46.002 28.007) (font bold))
  (tbtext "Año %C3" (name text5:Text) (pos 106.5022 4.007199999999983))
  (tbtext Hoja:%P (name text6:Text) (pos 106.502 7.007))
  (tbtext %F (name text7:Text) (pos 105.0022 10.50719999999998))
  (line (name segm5:Line) (start 87.00220000000002 8.507199999999983) (end 107.0022 8.507199999999983))
  (tbtext "Archivo: " (name text8:Text) (pos 106.002 13.007))
  (tbtext %T (name text9:Text) (pos 79.50220000000002 22.00719999999998))
  (tbtext Título: (name text10:Text) (pos 86.002 28.007) (font bold))
  (tbtext "Departamento de Ing. Electrónica" (name text11:Text) (pos 43.00220000000002 34.50719999999998))
  (tbtext "FACULTAD REGIONAL CÓRDOBA" (name text12:Text) (pos 41.00220000000002 37.50719999999998) (font bold))
  (tbtext "UNIVERSIDAD TECNOLÓGICA NACIONAL" (name text13:Text) (pos 45.50220000000002 40.50719999999998) (font bold))
  (rect (name rect2:Rect) (start 2.002200000000016 30.00719999999998) (end 47.00220000000002 45.00719999999998))
  (rect (name rect3:Rect) (start 62.00220000000002 30.00719999999998) (end 87.00220000000002 33.00719999999998))
  (tbtext "Miranda, Joaquín" (name text14:Text) (pos 86.00220000000002 31.50719999999998))
  (tbtext "Malerba, Iñaki" (name text15:Text) (pos 86.00220000000002 34.50719999999998))
  (tbtext "Hernando, Diego" (name text16:Text) (pos 86.00220000000002 37.50719999999998))
  (tbtext "Elías, Tomás" (name text17:Text) (pos 86.00220000000002 40.50719999999998))
  (rect (name rect4:Rect) (start 47.002 30.007) (end 87.002 15.007))
  (tbtext Alumno: (name text18:Text) (pos 79.002 43.507) (font bold))
  (rect (name rect5:Rect) (start 62.00220000000002 36.00719999999998) (end 87.00220000000002 33.00719999999998))
  (rect (name rect6:Rect) (start 62.00220000000002 39.00719999999998) (end 87.00220000000002 36.00719999999998))
  (rect (name rect7:Rect) (start 62.002 42.007) (end 87.002 39))
  (line (name segm6:Line) (start 107.0022 15.00719999999998) (end 87.00220000000002 15.00719999999998))
  (rect (name rect8:Rect) (start 87.00220000000002 2.007199999999983) (end 107.0022 45.00719999999998))
  (rect (name rect9:Rect) (start 62.002 45.007) (end 87.002 42.007))
  (tbtext 62513 (name text19:Text) (pos 58.50220000000002 31.50719999999998))
  (tbtext 63495 (name text20:Text) (pos 58.50220000000002 34.50719999999998))
  (tbtext 62509 (name text21:Text) (pos 58.50220000000002 37.50719999999998))
  (tbtext 62510 (name text22:Text) (pos 58.50220000000002 40.50719999999998))
  (tbtext Legajo: (name text23:Text) (pos 58.502 43.507) (font bold))
  (rect (name rect10:Rect) (start 2.002200000000016 15.00719999999998) (end 47.00220000000002 30.00719999999998))
  (rect (name rect11:Rect) (start 2.002 2.007) (end 47.002 15.002))
  (tbtext A (name text24:Text) (pos 1 25 rtcorner) (font (size 1.3 1.3)) (justify center) (repeat 100) (incry 50))
  (rect (name rect12:Rect) (start 47.002 36.007) (end 62.002 39.007))
  (rect (name rect13:Rect) (start 47.002 39.007) (end 62.002 42.007))
  (rect (name rect14:Rect) (start 47.002 45.007) (end 62.002 42))
  (rect (name rect15:Rect) (start 47.002 30.007) (end 62.002 33.007))
  (rect (name rect16:Rect) (start 47.002 33.007) (end 62.002 36.007))
  (tbtext %C2 (name text25:Text) (pos 84.50220000000002 4.507199999999983))
  (tbtext %C1 (name text26:Text) (pos 84.50220000000002 7.007199999999983))
  (tbtext %Y (name text27:Text) (pos 33.002 11.007))
  (line (name segm7:Line) (start 2.002200000000016 8.507199999999983) (end 47.00220000000002 8.507199999999983))
  (tbtext Verificador: (name text28:Text) (pos 46.002 13.507) (font bold))
  (tbtext "Informática para la Ingeniería CIII" (name text29:Text) (pos 44.002 16.507))
  (tbtext "Centro de Investigaciones en" (name text30:Text) (pos 41.00220000000002 18.50719999999998))
  (tbtext Sector: (name text31:Text) (pos 46.002 21.007) (font bold))
  (rect (name rect17:Rect) (start 47.002 2.007) (end 87.002 15.007))
  (tbtext %C0 (name text32:Text) (pos 84.50220000000002 9.507199999999983))
  (tbtext Proyecto: (name text33:Text) (pos 86.00220000000002 13.00719999999998) (font bold))
  (line (name segm8:Line) (start 2.002200000000016 22.50719999999998) (end 47.00220000000002 22.50719999999998))
  (tbtext "Proyecto Final" (name text34:Text) (pos 36.00220000000002 26.00719999999998))
  (tbtext %S/%N (name text35:Text) (pos 15.50220000000002 4.507199999999983))
  (tbtext Id: (name text36:Text) (pos 21.502 7.007) (font bold))
  (tbtext %D (name text37:Text) (pos 38.502 4.007))
  (tbtext Fecha: (name text38:Text) (pos 46.002 7.007) (font bold))
  (line (name segm9:Line) (start 22.502 2.007) (end 22.502 8.507))
  (bitmap (name bm1:Bitmap) (pos 97.00220000000002 29.50719999999998) (scale 1)
  (pngdata
    (data "89 50 4E 47 0D 0A 1A 0A 00 00 00 0D 49 48 44 52 00 00 00 B2 00 00 00 D1 08 02 00 00 00 E7 88 7F ")
    (data "CB 00 00 00 03 73 42 49 54 08 08 08 DB E1 4F E0 00 00 00 09 70 48 59 73 00 00 0E C3 00 00 0E C3 ")
    (data "01 C7 6F A8 64 00 00 20 00 49 44 41 54 78 9C ED 5D 7B 70 15 D5 FD 3F 67 77 EF CD 4D 42 24 09 16 ")
    (data "82 82 04 10 DB A0 82 22 8A 43 7D 0C E2 03 A6 AD 8E 22 D2 B1 8C AD 42 B1 1D 2B 6A AD 1D B1 A2 1D ")
    (data "FA 53 B1 2F 15 11 47 07 23 0A F5 89 48 95 87 83 28 4A 51 C4 0E 18 81 C1 AA C8 4B 85 10 1E 81 84 ")
    (data "90 DC 7B 77 F7 FC FE F8 64 BF 39 77 EF 26 24 37 67 F7 E6 B1 9F 3F 60 73 6F B2 E7 F5 3D DF F7 F9 ")
    (data "1E 2E 84 60 8C 31 C6 6C DB D6 34 4D 7E 50 02 21 04 E7 DC F5 4E 85 4D D0 AB D0 10 63 2C 1E 8F E7 ")
    (data "E4 E4 28 79 79 CB 30 4D D3 30 0C 34 CD 18 E3 9C 53 1F 14 42 9E 40 3F DE CF 18 B3 2C 4B D7 75 FC ")
    (data "8B 4F B8 65 59 9C 73 CE F9 7B EF BD 37 72 E4 C8 82 82 82 64 32 19 8D 46 2D CB 52 D2 A4 AE EB 75 ")
    (data "75 75 B9 B9 B9 9A A6 25 93 49 CE F9 D1 A3 47 4F 3E F9 64 DB B6 5B F3 E7 44 B5 CD 4D 87 A6 69 89 ")
    (data "44 42 D7 75 CE B9 69 9A 78 68 68 68 88 46 A3 4A FA DF 1C 2C CB 8A 44 22 A6 69 72 CE 23 91 08 73 ")
    (data "08 B4 95 E3 F2 84 6B 8C B6 6D 9B A6 89 77 E6 E4 E4 60 1A DB F3 7E 17 40 64 96 65 45 A3 51 D3 34 ")
    (data "3F FE F8 E3 D1 A3 47 63 2C 06 B6 9A 69 9A A7 9E 7A EA 8D 37 DE B8 75 EB D6 BC BC BC FA FA 7A 85 ")
    (data "D3 1A 8B C5 EA EB EB 6D DB 8E 44 22 B5 B5 B5 D3 A6 4D 7B F0 C1 07 5B F9 B7 27 DC 1C A6 69 46 22 ")
    (data "11 CE 79 32 99 D4 75 5D D7 F5 25 4B 96 DC 76 DB 6D 05 05 05 ED EE 78 4B D0 75 3D 99 4C D6 D7 D7 ")
    (data "CF 9A 35 6B CA 94 29 8C 31 AC 5F 73 1D 26 FA 76 C1 F5 FB F2 8F 6F BE F9 E6 8C 19 33 40 6D D1 68 ")
    (data "14 9B AA B9 F7 64 0C C3 30 EA EB EB 85 10 2F BD F4 12 71 0B 83 31 66 59 96 61 18 BD 7B F7 3E 78 ")
    (data "F0 E0 9E 3D 7B F0 9D 2A 6E 01 60 3C 98 B8 78 3C AE 50 88 D0 06 8D 44 22 98 32 CB B2 AA AA AA 2A ")
    (data "2B 2B 95 BC FF 84 4D 1F 39 72 84 38 7C 0B 83 6A 2B F3 C7 58 B6 6F DF 1E 89 44 92 C9 24 63 0C 7C ")
    (data "BE 9D 7D F6 84 A6 69 86 61 94 94 94 50 FF 0D B4 87 1F 40 1F A6 69 B2 B6 0F A3 39 80 53 09 21 F0 ")
    (data "66 5D D7 F7 ED DB A7 50 77 81 44 94 F7 90 AE EB 2D EC 5A 85 C0 D0 62 B1 18 86 83 D9 CB F8 55 78 ")
    (data "A0 6E 73 CE 6B 6A 6A 20 19 19 63 9A A6 61 A4 AA 84 88 AE EB 90 80 CC 11 7F 20 3E C0 20 BD A9 A8 ")
    (data "A8 E8 AC B3 CE FA EC B3 CF B0 09 54 31 2B D0 04 3A 81 51 7D FA E9 A7 4A DE 0C 10 6F 33 0C 03 83 ")
    (data "44 73 3E 6D 2C 19 34 51 A0 C2 8C 69 82 39 B3 24 7F 62 DB F6 DE BD 7B 41 79 9A A6 D1 D0 54 AD 0B ")
    (data "A8 8D 88 83 73 4E DC 81 31 66 18 86 81 B6 F1 05 ED 33 B5 DC 82 68 5C 08 D1 A3 47 0F 25 6F 06 40 ")
    (data "E9 F2 92 58 96 05 3D 5A 61 2B CD 35 0D 0D 17 DC 22 99 4C 12 69 66 00 D7 1F 6A 0E 68 8B 82 D6 15 ")
    (data "AE 0B 68 02 4D C0 CE 20 1E 61 90 5C 44 57 C8 CA 52 A8 DA 10 59 60 07 1F 38 70 40 D5 9B 19 63 2E ")
    (data "EB 14 9F 04 C3 2D 20 16 69 68 A4 DC A8 42 5D 5D 9D 6C DD E0 E5 0A B9 38 58 80 6D DB 86 61 D8 B6 ")
    (data "DD D0 D0 40 BB 4B 23 6B 58 08 51 58 58 A8 B6 6D 26 B1 47 30 24 C6 D8 CE 9D 3B 19 63 F2 50 E9 C7 ")
    (data "F6 B4 42 CF 10 C3 ED 79 5B 2B 21 2B 61 E0 C0 6A 59 D4 E1 C3 87 99 6F FE 24 AC 3B D4 64 D3 34 8B ")
    (data "8A 8A F2 F2 F2 68 39 34 F9 F7 F2 F3 F3 FD F0 C6 C8 DE 1E 5D D7 31 36 1A 61 32 99 54 3B E0 2E 83 ")
    (data "78 3C 2E CB 7B 59 16 B7 1F D8 39 24 28 4E 3F FD 74 D9 A4 D7 98 44 E3 85 85 85 AA 5A 95 01 3E 41 ")
    (data "CE 13 8C CD B6 6D 48 4A F8 4F 42 B8 50 53 53 B3 7B F7 6E 2C 1E 66 4C F9 CE 91 9D 6F BD 7B F7 CE ")
    (data "CB CB 6B FA 0A FF 81 64 8A 8B 8B 69 67 AB 6A 9B 68 82 DE 1C 8D 46 BF F9 E6 1B 68 00 34 60 8C 5F ")
    (data "B9 AF A6 F3 A2 AE AE EE DB 6F BF 05 73 25 21 A2 F0 FD C4 7B 30 E7 7D FA F4 81 FA 8C 6F 53 08 B0 ")
    (data "6F DF BE CA A3 09 B0 DF 0C C3 80 77 41 08 91 48 24 1E 7A E8 21 32 C7 E9 C1 27 87 7F 27 C5 CE 9D ")
    (data "3B 77 EC D8 01 E6 4A 0A 9F C2 F9 C1 3B 89 55 F7 EB D7 4F E6 46 8D 4F 68 EF B4 D3 4E 3B E9 A4 93 ")
    (data "54 35 0C 40 3A 9A A6 49 C2 2C 1A 8D 7E FA E9 A7 E4 37 33 0C 03 D2 24 64 15 32 B6 6D DB C6 1C DB ")
    (data "90 16 4C ED 14 C9 2E 2C 59 89 61 2E 6E 71 CA 29 A7 28 57 2F C8 D4 86 34 B1 6D 3B 91 48 EC DB B7 ")
    (data "EF F8 F1 E3 70 99 C8 BD 0C 29 83 F0 EA AB AF 12 AB A0 1D A5 B6 09 90 02 A4 79 AF 5E BD 64 5F 59 ")
    (data "53 4B 42 88 82 82 82 BC BC 3C 3F 8C 11 E6 AC 3A BA 52 5D 5D FD EA AB AF 32 47 5E 92 A7 32 14 22 ")
    (data "84 D5 AB 57 E3 C1 27 1B 8D 82 8B B6 6D E7 E7 E7 8F 18 31 42 66 D8 9A FC 7B 96 65 91 D6 A9 1C 20 ")
    (data "79 52 2D 3F FF FC 73 78 09 99 43 37 2E 3E D6 7D 40 A6 19 7D F2 D5 57 5F B9 BE 65 AA 55 4E 0A 2B ")
    (data "32 C6 F2 F3 F3 7B F5 EA C5 24 53 43 6B 68 68 60 8E 77 41 D7 F5 BC BC BC 60 98 F9 C6 8D 1B 13 89 ")
    (data "04 9E D1 1B A8 1A DD 0D 14 77 25 ED DB B6 ED C7 1F 7F 3C 80 A6 61 5E 20 DA D7 BB 77 6F F9 2B 2D ")
    (data "16 8B A1 2B 58 9B DF FD EE 77 C1 08 F8 75 EB D6 6D D9 B2 05 CF 68 B1 3D A1 A6 CE 0B E8 5B B2 F6 ")
    (data "AD 69 DA D2 A5 4B 03 68 37 1E 8F 63 D1 0B 0B 0B 7B F4 E8 21 0B 71 0D 4E 46 30 F0 44 22 31 72 E4 ")
    (data "C8 60 C8 22 27 27 E7 A3 8F 3E 62 12 45 32 D5 49 1E 9D 05 08 F5 91 24 5D BD 7A F5 A1 43 87 FC 6E ")
    (data "94 22 1E BA AE 97 96 96 42 F1 6C EA 52 24 12 21 6F 49 34 1A 2D 2E 2E 0E 46 EF 8B C7 E3 77 DD 75 ")
    (data "17 B9 BD 7D 52 B6 3B 05 68 33 E0 61 CD 9A 35 24 5E 83 69 FD B6 DB 6E 83 A5 4A F6 6A 93 FB 13 86 ")
    (data "90 A6 69 7D FA F4 09 60 79 20 32 3E FB EC 33 CB B2 40 B3 C1 E4 CE 74 40 D0 D8 75 5D DF B2 65 CB ")
    (data "FC F9 F3 83 D4 BE 85 10 97 5D 76 59 24 12 41 10 18 1F 6A B4 12 64 3D 4E 9E 3C 59 AD D2 EB 09 E4 ")
    (data "60 FE FA D7 BF 66 A9 41 5E BF DB ED 68 20 EB 1D 3F 6E D9 B2 A5 AA AA 2A 00 61 4A 12 E4 A4 93 4E ")
    (data "72 F5 81 81 2C 48 DF 61 8C 59 96 75 F5 D5 57 FB DD 27 E6 A4 C8 56 54 54 7C F9 E5 97 CC 71 76 75 ")
    (data "43 21 42 4E 24 6C 89 BB EF BE 3B 18 96 49 06 EA 8D 37 DE 28 27 57 E0 5B 0D 59 96 4C 12 22 A7 9C ")
    (data "72 0A FD B1 9C DB C2 94 86 D0 C8 81 F1 F0 C3 0F 33 AF AC B5 EE 03 CC AA A6 69 5B B7 6E AD AA AA ")
    (data "0A 66 1E 68 07 42 C3 43 1F 88 4B 35 72 0B 92 6D 9C F3 D2 D2 D2 29 53 A6 90 C7 5A 96 73 6A 7B 0C ")
    (data "BB F9 95 57 5E D9 B6 6D 9B F2 94 B0 CE 02 39 7A 3C 69 D2 A4 C0 C4 28 56 BC 67 CF 9E 14 A1 A5 8C ")
    (data "3D 06 2F A7 61 18 E8 1C 14 51 D3 34 07 0D 1A 04 2E 82 AC 88 68 34 EA 47 77 E3 F1 38 63 CC B2 AC ")
    (data "DB 6F BF BD 1B 6A 15 00 A9 DB AF BD F6 9A 1C 1E F3 BB 5D A4 18 4E 9A 34 E9 F4 D3 4F 67 69 91 87 ")
    (data "A6 FC 36 5D D7 A1 88 E6 E4 E4 8C 1F 3F BE A4 A4 84 DC 8E 20 17 CA BA 53 02 4D D3 70 EC 87 31 F6 ")
    (data "FE FB EF 7F F0 C1 07 DD 33 26 82 D8 44 22 91 78 EC B1 C7 F0 89 C2 B4 FB 16 90 4C 26 35 4D 1B 3C ")
    (data "78 30 7E C4 C9 AB 26 21 02 19 41 19 19 B0 98 87 0F 1F 5E 58 58 88 3C 66 E4 49 40 BE 28 EC 2E B2 ")
    (data "8D 49 B3 99 3C 79 72 90 C6 7A 87 42 24 12 79 F4 D1 47 37 6C D8 C0 1C C5 3F 18 D5 BB A8 A8 E8 CA ")
    (data "2B AF C4 B3 69 9A 64 8A 32 39 DF 02 9B 15 67 0C 35 4D 9B 30 61 02 4E 10 50 88 4B 79 76 10 73 92 ")
    (data "A7 19 63 95 95 95 4F 3C F1 84 C2 F7 77 22 1C 38 70 60 D6 AC 59 8C 31 B2 0A 03 10 A9 9C F3 C2 C2 ")
    (data "C2 73 CE 39 07 6D 81 05 34 B5 8B EC 29 F9 5F 10 8E EC 76 24 DE AE D6 CD 42 2F 47 6A 1A E7 FC C3 ")
    (data "0F 3F 14 ED C6 1B 6F BC A1 B0 93 27 C4 93 4F 3E D9 CE 0E F7 EB D7 8F 49 B9 E3 81 C5 86 9E 7E FA ")
    (data "69 CA E7 70 75 C9 1D 2C 25 E7 81 A6 69 C3 86 0D 13 A9 A9 9D 0A DD 2C F2 F1 07 CA 37 99 3E 7D BA ")
    (data "AA F7 77 16 CC 9C 39 73 DF BE 7D 90 EB F0 1F 04 16 49 26 7B 33 FD A0 BD 46 8A 24 AD 3D 3D CC 9D ")
    (data "3B 37 E5 57 95 0A 3C 4F 3E F9 F9 E7 9F DF 72 CB 2D CC 09 B2 DB B6 ED 3A 4E D2 79 21 52 0F E0 E0 ")
    (data "61 C7 8E 1D 0F 3D F4 10 CC 3D E6 B3 EC 70 9D C3 38 E3 8C 33 C0 96 E4 B4 72 91 9E 86 93 8E B3 CF ")
    (data "3E 7B D0 A0 41 4C 52 48 03 F0 D5 3F FF FC F3 8F 3C F2 08 74 0E B0 2E 3A 41 DB A9 01 8B C3 C5 6E ")
    (data "87 0C 19 12 40 D3 72 4A 37 80 D8 7D A3 BC D0 34 52 1C BD 33 BF 65 D8 B6 5D 58 58 F8 93 9F FC 84 ")
    (data "39 E9 7E C2 51 38 FC C6 3F FE F1 8F 0F 3F FC 90 44 2C DC 27 01 B4 EB 2B 10 88 C2 58 20 31 A7 4E ")
    (data "9D 1A 18 2F 14 4E FE 3D 92 28 8A 8B 8B 91 6F C5 39 47 D1 18 3A 64 86 DF 6F 96 2C C0 55 2E BB EC ")
    (data "32 E6 1C F5 F1 BB EB 80 AE EB 87 0E 1D 1A 33 66 CC D1 A3 47 B1 C3 58 50 06 9B AF 40 0C 88 39 67 ")
    (data "06 EF BD F7 DE E7 9E 7B 2E 98 44 38 AC 1D 99 39 8C B1 29 53 A6 0C 18 30 80 31 86 13 C9 50 68 DC ")
    (data "96 88 27 4C D3 84 5F E1 E2 8B 2F 66 38 D9 1E 60 F6 94 A6 69 45 45 45 BB 77 EF 46 67 B0 BD 5A 89 ")
    (data "8E 69 89 C0 BE 03 7E FF FB DF B3 A0 B2 D1 48 71 A4 E6 F2 F3 F3 B7 6E DD 2A 5B 1F 78 C6 72 37 F2 ")
    (data "8C 96 07 63 DB F6 DB 6F BF 1D 70 3A 1D 49 B8 92 92 92 FD FB F7 B7 9E 20 80 8E 49 16 42 88 44 22 ")
    (data "61 DB F6 03 0F 3C 90 3E 52 5F 21 2F 9F 61 18 13 26 4C 00 1D 90 27 02 DD 93 09 F7 04 64 01 40 D3 ")
    (data "CC C9 C9 09 8C 99 53 43 43 86 0C 21 61 DC D9 C9 42 08 71 FF FD F7 E3 80 5D 60 DD 93 CD 4C FC 5B ")
    (data "53 53 43 DE 29 91 4A 1C 34 CF 2D A9 9C 78 B0 2C 6B F6 EC D9 C8 08 0D 58 F5 D3 34 6D FB F6 ED FD ")
    (data "FA F5 3B 78 F0 60 90 ED FA 01 DB B6 6F BE F9 66 9C B2 24 45 2D 18 6E C1 A5 9A 25 63 C7 8E 2D 28 ")
    (data "28 80 0B 11 DD A0 43 44 29 31 A9 E6 E8 9A 08 C7 B6 ED AA AA AA 5E BD 7A 91 87 43 76 7D 2A E7 1F ")
    (data "E9 01 FD 68 34 DA AB 57 AF 8F 3F FE 58 78 71 3C FA 84 1E 82 E1 16 D4 CF A7 9E 7A 2A 7D F6 90 AB ")
    (data "40 73 F8 FD F7 DF 8F 1F 3F 5E 9E B7 F6 D4 CD 69 13 5C A5 82 AA AA AA 64 1D A2 39 B4 24 44 64 AD ")
    (data "04 C9 32 4C A2 03 8A 7F 32 A5 54 EF F9 4E E4 96 FD ED 6F 7F 6B A1 87 E4 BC CF A2 10 21 52 90 A5 ")
    (data "DE 9E 3D 7B B0 A9 98 23 E6 C9 91 10 A4 34 D1 75 FD 57 BF FA 55 2B C5 F1 89 B9 05 4A 51 09 21 86 ")
    (data "0D 1B 06 1A 97 B3 EB 10 1F F7 69 24 E9 69 7C D7 5D 77 1D 0A 1E 0A 49 1C CA 72 D1 B2 AC 20 B9 85 ")
    (data "61 18 4F 3D F5 14 9A 06 87 90 09 D4 B6 ED 77 DE 79 87 FE 84 88 20 E0 F3 73 A0 C5 BC BC BC B5 6B ")
    (data "D7 B6 86 26 5A 45 16 F4 E3 FA F5 EB E5 51 D1 C9 02 E5 39 98 72 62 07 72 87 64 FB 6A E0 C0 81 AB ")
    (data "57 AF 46 AF 20 4A 5C 5D 0D 86 2C 68 69 9F 78 E2 09 97 BE 26 84 48 26 93 A6 69 A2 8C 2B 78 43 53 ")
    (data "25 54 47 7C 04 6C DF 5D 7F FD F5 42 88 78 3C 9E 3E 63 6D 20 0B 79 A8 89 44 02 1F 96 95 95 51 F0 ")
    (data "9D F9 A3 31 71 07 F2 87 20 3B 2A B0 C4 18 BB EB AE BB 9A 23 E2 25 4B 96 04 60 31 D1 4A CF 9B 37 ")
    (data "4F 26 50 30 D7 B5 6B D7 9E 79 E6 99 2C 8D 31 A8 4D 65 6A 53 3F 8F 1D 3B 26 9B A0 19 92 05 40 EA ")
    (data "09 FC F9 5F 7D F5 15 46 15 89 44 40 1C 68 55 21 57 94 57 34 7D 06 F1 2D D9 78 1F 7E F8 21 F5 90 ")
    (data "58 F7 EB AF BF 1E C0 D4 53 13 8F 3F FE B8 3C DD 55 55 55 97 5F 7E B9 AB C3 BA AE A3 CF AE 14 85 ")
    (data "C0 0C FE 39 73 E6 50 27 DB A5 72 D2 2C 5B 96 85 37 E2 DF D9 B3 67 FB CA FD 64 95 D3 15 DD 75 7D ")
    (data "85 87 E1 C3 87 97 97 97 D3 66 B5 6D FB DF FF FE B7 7F DD 93 01 71 30 67 CE 1C 34 BD 6E DD BA 07 ")
    (data "1F 7C 90 34 7F 3C A4 13 A8 AC 8A 05 C3 D5 CA CA CA 6A 6B 6B D1 C9 D6 D0 C4 89 C9 82 80 D7 59 96 ")
    (data "55 5B 5B DB B7 6F 5F 39 2D C3 0F 1B D5 95 E6 EA 99 07 D4 94 61 A6 69 97 5E 7A E9 B3 CF 3E 0B C1 ")
    (data "B7 78 F1 E2 60 74 3A 0C 7C D5 AA 55 5F 7F FD F5 C5 17 5F 9C 52 A9 4E EA 3F CD 8F BC 9D D2 A3 9A ")
    (data "FE 61 D1 A2 45 B2 FF 2A 3D E9 A6 0D 64 D1 02 B9 BC F5 D6 5B CC CB 7D 96 2D D0 BC EB BA FE A7 3F ")
    (data "FD 69 E5 CA 95 59 EC 4C 16 E1 B9 19 2E BD F4 52 79 F9 A0 26 9E 90 32 DA 4C 16 42 88 64 32 89 80 ")
    (data "3B CB 36 41 00 E9 BC BA 9B 17 75 24 BF 19 0E C2 83 55 10 FB 6F AF 3B AB 65 8C 1C 39 92 F9 E6 EB ")
    (data "CC 18 B2 93 AD BB 81 7C 65 CC 59 97 45 8B 16 11 11 50 78 CC 17 21 82 30 A0 69 9A 1F 7C F0 41 7E ")
    (data "7E 3E 0B DC 39 D3 DC 74 C8 EA 4E 76 FB 93 45 C8 CE D3 87 1F 7E 98 56 2D DD 1D AC 98 2C 00 E8 2F ")
    (data "CF 3F FF 7C D6 D7 C0 95 9B DE 6D 59 05 4B E5 13 57 5C 71 05 A8 C1 34 CD 74 D3 54 BD 6E 01 FF 1D ")
    (data "BD FD 9A 6B AE 61 1D 66 31 5C C1 BC 6E 05 39 1C C1 39 AF AE AE 16 52 8C 86 74 0B 59 C9 50 49 16 ")
    (data "22 95 0B ED DB B7 CF A7 4A E1 AD 04 51 24 29 9E 59 17 6A 59 C7 C6 8D 1B 85 10 75 75 75 58 23 CA ")
    (data "A8 70 B9 FE 14 93 05 01 CD 6C DC B8 31 BB B3 E0 F2 70 74 10 D6 15 30 68 D4 0B 16 2C 70 25 1B 10 ")
    (data "77 27 86 71 C2 95 6D 17 B7 A0 E6 CB CB CB 99 E4 AE E9 86 3C 3C 48 B8 7C 45 E4 5F 67 8C 5D 75 D5 ")
    (data "55 72 9E 47 6B 8C 0E 95 64 21 0B 2D 34 7F C6 19 67 30 29 66 C1 D2 6A 63 84 50 05 8A 27 93 2F 15 ")
    (data "D3 8E 1C 6E D8 89 19 13 44 86 64 21 67 6D B9 98 D2 05 17 5C D0 74 ED 6E B7 E4 E4 01 40 0E D0 CB ")
    (data "9F E3 E6 28 17 5A 1F 32 55 46 16 42 32 78 12 89 84 65 59 47 8F 1E ED DF BF 3F 6B 26 0A 10 42 39 ")
    (data "C0 2D 74 5D EF D1 A3 C7 9E 3D 7B 10 E5 76 65 03 65 86 0C 4B 56 50 41 1D 5B BA 4F 4A 38 C5 78 6D ")
    (data "A7 16 53 66 2F 0F D1 32 22 91 88 7C A0 4B D7 F5 03 07 0E 14 16 16 12 87 B6 A5 6B 09 33 63 DB 6D ")
    (data "D6 0D 85 74 F9 22 73 32 86 E9 DC 12 E7 FC C8 91 23 88 25 0A 21 FC BE E8 BC 1B 02 97 80 D0 84 E7 ")
    (data "E5 E5 BD FB EE BB 45 45 45 5C 2A 12 0D B4 CB 28 CB 80 C3 C8 E6 2F D5 20 C0 87 A6 69 E2 BA 90 58 ")
    (data "2C D6 CD E3 55 FE 41 0E 0D 2E 5F BE 5C 5E 1A 59 7C B4 47 EB CC 50 B7 70 35 EC B2 8F 85 10 F5 F5 ")
    (data "F5 72 8E 5D 08 55 90 AD D3 8A 8A 0A 52 26 5C 09 CF A2 7D BA 45 BB DC 59 E9 A0 CE A1 4F 3F FC E1 ")
    (data "0F 69 18 21 89 64 86 94 E2 BA 4E D2 93 61 18 94 C6 DD 4E 5B D4 13 2A C9 C2 95 0F 0C DB 64 F0 E0 ")
    (data "C1 AE 60 77 68 BB B6 12 29 25 FB 25 E2 D0 75 7D E5 CA 95 74 42 A9 AD 87 31 5B 03 65 64 91 7E EA ")
    (data "99 38 C7 D0 A1 43 59 F6 4E 49 74 76 C8 31 30 E6 14 BF 13 2A 14 88 16 A0 F2 72 66 E6 58 A7 B6 54 ")
    (data "77 87 73 BE 79 F3 E6 99 33 67 DA 4E BD 95 EE 79 69 48 5B 91 EE DB 16 42 0C 1A 34 88 D2 AD 39 E7 ")
    (data "C2 B9 B9 48 FD D9 60 85 24 E6 62 15 94 32 0E 2C 5B B6 8C 31 46 C7 08 14 0F A3 8B 42 E6 AC 17 5D ")
    (data "74 D1 D1 A3 47 3D 67 38 63 6F 66 73 50 46 16 A0 09 32 56 29 53 5C 48 85 F4 B2 1E 6B ED 5C 90 9D ")
    (data "C5 48 B5 82 C7 02 13 4E 0F 38 28 A6 16 8A 2D 11 B9 DF E9 A9 A4 B6 6D D7 D5 D5 4D 9A 34 29 54 2F ")
    (data "5A 03 1C 1A 18 38 70 E0 A6 4D 9B 84 B4 FC B8 47 4C 48 94 41 6A BE 2A A8 24 0B CF BA 2A AE 4F 30 ")
    (data "9E 99 33 67 66 7B CE 3B 3A C0 2A A6 4F 9F 5E 53 53 23 D2 58 42 9B 0E 7D 64 00 C5 DC A2 F5 58 BB ")
    (data "76 ED C9 27 9F 4C 67 EE 88 61 CA EE 9A AE 64 BC B8 DC 0F CC EB 4C 94 9C 91 9A 93 93 F3 F2 CB 2F ")
    (data "0B 69 E1 5B 79 20 4C 09 B2 46 16 C0 B5 D7 5E 8B 5B 45 58 2A 71 D0 73 30 B7 28 04 03 39 42 94 1E ")
    (data "5B 96 8F B1 8F 1E 3D 1A F3 43 6A 59 FB 83 A2 6D 42 D6 C8 82 DC B4 EB D6 AD 3B E3 8C 33 28 6B 39 ")
    (data "FD CC 6E D7 20 0B E2 10 F2 70 10 1F A0 B3 DD 9C F3 58 2C B6 68 D1 22 D7 5C 51 89 11 9F 44 46 3A ")
    (data "B2 49 16 42 3A 2C 3B 63 C6 0C E6 B0 53 17 89 74 19 C8 FC 20 7D 68 9A A6 5D 7D F5 D5 E4 AA 4A CF ")
    (data "CB 15 DD 81 5B 00 B2 0A 5D 5F 5F 7F F3 CD 37 CB E1 41 88 92 AE 91 CB 23 1F E2 90 AB 3F E0 93 09 ")
    (data "13 26 7C F7 DD 77 98 07 97 E0 70 7D 18 0C B2 4C 16 34 7E CA 29 7A F7 DD 77 7F F9 CB 5F BA A2 AF ")
    (data "5D 29 CC E6 0A 0F FD F8 C7 3F 5E B0 60 81 70 4E 70 D0 F2 93 AB AA AD 87 CD 95 20 CB BA 85 1C 08 ")
    (data "16 D2 14 1C 3A 74 08 67 5C 59 57 39 67 4C A5 5A 88 2C 0A 0A 0A 36 6F DE 8C E1 93 FD E9 2A A1 2A ")
    (data "BC BC 14 01 20 CB DC 42 78 D5 BF 22 F5 EA DB 6F BF BD EE BA EB 58 17 E2 16 A0 89 4B 2F BD 74 D9 ")
    (data "B2 65 34 58 39 6B 5A 9E 10 97 FB 47 B9 87 BB 05 34 91 05 C5 67 83 94 61 E9 70 9D 71 48 26 93 AB ")
    (data "56 AD BA F7 DE 7B 7F F0 83 1F B0 66 F4 D0 F4 03 A8 C1 A8 23 2D 4B 3A 39 55 9F 3A 36 75 EA D4 85 ")
    (data "0B 17 66 71 7A 3D 91 CE A2 B8 10 02 19 A1 AE 7F B3 65 16 52 BB 72 8D 59 C6 58 75 75 F5 DE BD 7B ")
    (data "2F BF FC F2 CA CA 4A EE 5C A6 17 89 44 30 24 CA 28 76 5D 80 E0 1F 52 EE 01 74 1A A5 6B 7C 70 1F ")
    (data "0A 7E 87 73 5E 52 52 72 C7 1D 77 FC F6 B7 BF CD CF CF C7 88 F0 79 30 37 04 78 02 33 96 48 24 E0 ")
    (data "4D 41 CE B6 65 59 8D 13 EE 92 5B 14 E5 CA 16 D2 93 4A 5C 26 FB 91 23 47 66 CD 9A 75 EE B9 E7 C6 ")
    (data "62 31 E6 E5 D5 08 D8 03 46 6D B9 82 C3 BA AE 0F 1D 3A F4 D6 5B 6F 3D 70 E0 00 C5 39 61 79 75 10 ")
    (data "C6 2C 47 24 5C 8A 0B 17 CE 1D DA 9C 73 4A F3 8F C7 E3 D9 4A DA A6 69 45 4A 01 88 57 08 C1 39 8F ")
    (data "C7 E3 39 39 39 C2 C9 73 5F B5 6A D5 67 9F 7D 36 67 CE 9C CA CA 4A DB B6 A3 D1 28 08 3A 98 7E E2 ")
    (data "4E 5B EA 0C 97 2E E3 30 0C E3 81 07 1E 28 2D 2D 9D 3C 79 32 66 19 D9 12 CC 29 BF 2D 1C BE 22 9C ")
    (data "84 89 E0 41 FC 55 DE 42 4D 3F 12 81 50 EA B6 8F F4 D9 0A B8 C8 D6 A5 87 A7 6F B2 9A 9A 9A FD FB ")
    (data "F7 97 97 97 8F 1A 35 2A 78 0F 87 EC 93 1D 32 64 C8 3F FF F9 CF AA AA AA 03 07 0E A0 6F 32 E7 93 ")
    (data "7B DE D0 D0 10 A4 59 E1 09 D9 63 94 5E 6E B6 F1 7A 1F C3 30 E2 F1 78 4D 4D 0D F6 1C 6A 2E 05 3C ")
    (data "C5 04 CC 26 AE F8 B6 9D 6B 9B 0C C3 68 68 68 C0 C9 19 3C E7 E6 E6 E2 A6 27 C6 18 AE 58 B2 6D FB ")
    (data "FB EF BF 7F E6 99 67 1E 7A E8 21 BF 3B 19 89 44 30 75 13 27 4E BC FF FE FB E9 16 48 94 0F 20 8D ")
    (data "47 73 AE 2F 8F 46 A3 E0 C1 0D 0D 0D 3D 7A F4 C0 4D C9 59 F4 D4 A1 27 E0 79 50 28 8B 8B 8B E9 DB ")
    (data "A6 53 65 2B 57 AE BC F3 CE 3B 7B F6 EC 99 9B 9B 7B FC F8 F1 6C F5 98 3B 77 1A 50 C7 34 4D 83 FA ")
    (data "C6 9C F3 52 A0 00 D3 34 73 72 72 20 17 49 B9 2B 2A 2A 3A 7C F8 F0 A7 9F 7E 1A 00 59 A3 1B E7 9C ")
    (data "73 4E 49 49 49 75 75 75 4E 4E 4E 43 43 83 A6 69 B1 58 EC D8 B1 63 A0 57 EC 31 E6 DC 55 86 E3 3D ")
    (data "50 EE 58 56 C3 3D C9 64 32 16 8B 25 12 89 48 24 62 59 96 61 18 2F BE F8 E2 C0 81 03 1B BB 44 F9 ")
    (data "54 0B 17 2E F4 2C 7F 19 3C C8 B4 4B B7 F1 5A 73 BA 35 98 12 17 E9 E5 56 E4 64 00 57 F7 5C FD 71 ")
    (data "59 AD 59 81 5C 39 08 0F 5F 7D F5 15 09 91 A6 B2 E4 72 2F B3 9B 85 8B 8D 4E 1A 9C 2D 5D FF 47 1F ")
    (data "B6 70 87 6C 30 E2 8F 5A A1 9E E0 13 4C 9D AB 7B AE 2E D9 1D E0 72 57 6A 1D 9D 89 46 A3 D0 1C 1A ")
    (data "69 25 8B 3D 0B D1 61 11 92 45 08 0F 84 64 11 C2 03 21 59 84 F0 40 48 16 21 3C 10 92 45 08 0F 84 ")
    (data "64 11 C2 03 21 59 84 60 CC 71 63 34 65 D1 66 B5 33 21 3A 28 42 B2 08 E1 81 90 2C 42 78 20 24 8B ")
    (data "10 1E 08 C9 22 84 07 42 B2 08 E1 81 90 2C 42 78 20 24 8B 10 1E 08 C9 22 84 07 42 B2 08 E1 81 90 ")
    (data "2C 42 78 20 24 8B 10 1E 08 C9 22 84 07 42 B2 08 E1 81 90 2C 42 78 20 24 8B 10 8C 49 27 95 F1 63 ")
    (data "48 16 21 3C 10 92 45 08 0F 84 64 11 C2 03 21 59 84 F0 40 48 16 21 3C 10 92 45 08 0F 84 64 11 C2 ")
    (data "03 8D 64 41 C5 41 E5 0A 1E 59 84 5C 6A 53 EE 8C E7 CD 01 72 15 91 C0 2A C1 B5 70 BF AB DC 79 AA ")
    (data "DC EB 59 33 34 BB 65 68 A9 4B 91 48 24 91 48 C8 15 88 0C 2A 3B 34 64 C8 90 5B 6F BD B5 47 8F 1E ")
    (data "E8 77 B6 8A 72 90 5F 45 3E D0 82 67 21 04 6A 67 A1 6C 12 E6 14 65 02 E9 82 3F CE 79 65 65 E5 C2 ")
    (data "85 0B D5 5F F6 97 0A EA D2 D8 B1 63 CF 3F FF 7C EA B0 6D DB 28 48 85 72 64 8C B1 DC DC DC 86 86 ")
    (data "06 C6 18 CA 11 A1 0E 58 32 99 CC 2E 4D 50 E9 29 54 FA D2 75 BD B0 B0 B0 A9 4B F8 D4 55 C7 35 EB ")
    (data "75 E0 D2 0B 56 CA 77 EF BA 6E 57 90 AF 59 10 42 AC 5F BF 3E 80 69 E5 9C 63 FF BC F7 DE 7B 22 AD ")
    (data "82 3F 5D F8 20 57 DA A3 2B C7 D3 EB 59 67 05 54 80 95 BA 44 75 16 59 7A 61 69 2A D6 9F 2D 34 77 ")
    (data "0D B0 7C DB 8A E7 B5 3C FF FA D7 BF 2E BF FC F2 33 CF 3C 33 00 B2 00 0C C3 E8 DF BF FF 6F 7E F3 ")
    (data "9B 4D 9B 36 51 15 32 B9 CF A8 F1 EE FA 4A 26 F1 6C C1 55 44 DB 05 77 5D CE 8E 06 E7 AE E8 A6 D2 ")
    (data "9C 54 4C DF B2 AC CA CA CA 8F 3E FA E8 17 BF F8 85 BC 54 81 D5 83 93 AF 05 01 4A 4A 4A 66 CF 9E ")
    (data "BD 75 EB 56 F9 C2 52 99 70 5D 5B 2E 8B 5C 99 88 52 AE 3F 4F 68 AA F9 CD 1C 79 89 A2 7C 59 2F CA ")
    (data "2F 52 0B CC CA 9F FC F7 BF FF DD B4 69 D3 17 5F 7C 31 6F DE 3C 14 C7 04 48 11 A1 A2 99 BE 82 4A ")
    (data "8F 53 CD 6F FA 64 D8 B0 61 13 27 4E 1C 3E 7C F8 CF 7E F6 33 2A A4 4D 05 B6 A9 E0 B7 DF 3D 3C 21 ")
    (data "A8 80 33 73 9D 4E 26 82 4D BF A9 20 2B A0 BD E5 79 A7 C6 4B 2F BD 34 6E DC B8 3E 7D FA 60 54 34 ")
    (data "24 32 40 E4 7B F0 82 01 5D 77 42 37 6A D1 E5 7B 9A A6 9D 7D F6 D9 53 A7 4E 95 2F 2C A5 49 CE EE ")
    (data "6C BB 94 21 97 E0 6E 14 22 F2 FD 36 59 57 85 00 EA 46 22 91 38 7A F4 E8 DC B9 73 99 64 D1 91 7D ")
    (data "98 45 5B 5A 16 1F E9 86 BD EB CE CE E1 C3 87 7F FD F5 D7 B5 B5 B5 18 54 07 99 67 D7 D5 B5 D4 A5 ")
    (data "EC 5F 61 D7 DC 8F E8 F1 E2 C5 8B 6F B9 E5 96 60 97 DB 47 94 95 95 FD F5 AF 7F DD BF 7F BF 48 53 ")
    (data "39 9B 9B 0A 19 DD E2 52 2A 21 DD 6C 48 62 42 38 83 5F B3 66 CD F0 E1 C3 B3 BD 8E 2A 41 02 6E E0 ")
    (data "C0 81 F7 DC 73 8F 70 EE 1E 97 17 DB 75 2B BD 68 DE 2E F3 15 D9 BC 94 CA 45 07 D0 D2 6D DB DE B0 ")
    (data "61 43 DF BE 7D 99 D7 75 C2 9D 17 A4 FD 90 97 53 D7 F5 27 9F 7C 52 E6 DE 2D 2C 7F C0 94 91 7D B2 ")
    (data "90 E7 65 DD BA 75 10 19 AE 7B A6 3A 82 D2 DE 7E C0 A0 75 8D 65 E0 C0 81 8F 3D F6 58 3C 1E 27 C6 ")
    (data "29 BC 6E 72 08 98 67 64 59 88 08 69 C0 13 27 4E CC CB CB 63 8C C9 17 09 77 0D 82 00 5C 24 AE EB ")
    (data "3A 51 FF 79 E7 9D B7 72 E5 4A 21 44 43 43 83 70 84 48 16 D5 D2 6C 72 0B 92 A9 77 DE 79 27 4B 33 ")
    (data "F0 68 06 BB C6 F5 B8 40 3A 95 CB E6 4C 24 12 21 67 9D 8C 6E A4 5B 40 93 58 BE 7C F9 D0 A1 43 5D ")
    (data "D6 26 B9 7A 48 47 EB 1A 94 81 51 50 30 45 1E 2F 38 07 7E BC EF BE FB 44 AA D3 B9 1B 91 85 10 E2 ")
    (data "0F 7F F8 83 6B CA E4 B9 73 C5 CD 3B 3B D2 95 24 CF 1C 06 FC C2 88 11 23 AA AB AB 29 9E 22 BB 1C ")
    (data "83 59 1A 95 64 21 C7 0C 49 63 90 75 25 D2 2E 2B 2A 2A 7A F6 EC 29 BB 26 E5 99 0A 01 3C F2 C8 23 ")
    (data "42 12 B5 B2 B5 92 6E D3 AA 85 32 B2 90 83 F2 E9 D1 17 D9 8B BA 68 D1 A2 48 24 22 CB 85 90 1A D2 ")
    (data "81 39 19 33 66 CC 9E 3D 7B 5C 61 36 BA 38 18 53 EA 07 0B 51 2C 44 3C 1D FE B2 DD 35 6E DC B8 F4 ")
    (data "3B D3 43 B2 F0 04 2E F1 2B 2A 2A FA CF 7F FE E3 5A 7B 4C A9 E7 0E 54 02 65 64 41 FD 86 89 25 1C ")
    (data "C7 25 7D 5E 5D 5D ED 1A 76 76 23 1A 1D 1C AE F4 80 99 33 67 8A 66 64 47 87 E6 16 AE CE B9 3C 98 ")
    (data "E5 E5 E5 4C 8A 1E 79 A6 44 84 24 E2 02 FC 37 A4 78 4D 98 30 A1 B6 B6 D6 E5 2C 17 FE 24 CA A8 14 ")
    (data "22 72 16 1D 3E 41 8F A7 4D 9B C6 1C F2 F7 54 BF B9 83 C0 67 BE E3 42 76 FC 13 65 9C 76 DA 69 C2 ")
    (data "B1 4D 7C F5 7B AA B7 44 84 10 A6 69 D2 F3 D4 A9 53 5D 83 74 51 46 48 10 CD 41 E6 A9 72 1E 89 90 ")
    (data "D4 4F 9F F2 FF 14 5B 22 2E 86 76 C9 25 97 B8 06 D9 32 05 74 0D 17 85 2A A4 BB 3A F0 1C 89 44 2A ")
    (data "2A 2A 54 2D 9C 27 DA 4C 16 E9 F1 2D E1 A8 C4 F4 15 48 E4 82 0B 2E C8 DA 8C 76 69 70 CE 0B 0A 0A ")
    (data "76 ED DA 25 2F 8A 67 D6 7E C6 52 26 13 6E 91 EE A2 70 C1 34 CD B3 CE 3A 2B DB B3 D7 35 21 4B 93 ")
    (data "F2 F2 72 CB B2 E4 B4 61 2C 0D C9 94 8C 3D 5D 6D 26 0B 57 9A 97 70 34 4D 8A 0B 1F 3B 76 AC AC AC ")
    (data "4C D3 34 D7 4D CC 21 D4 02 46 CA 93 4F 3E E9 B9 3A 96 65 B5 47 E1 C8 50 B7 90 B5 4B F9 73 D3 34 ")
    (data "CB CA CA E0 C1 CC EE 45 ED 5D 15 98 5B 79 CB 3D FD F4 D3 44 0A 78 90 CF 4C 64 B6 BE 99 90 05 A9 ")
    (data "11 14 04 41 F2 99 10 E2 C2 0B 2F A4 83 97 2C A4 0C 3F 01 51 02 27 10 92 43 5D A2 A4 3D FE 8C 0C ")
    (data "55 4E 91 76 42 CD B6 ED 9B 6E BA 49 76 6C 87 12 C4 27 50 38 89 62 8D B9 B9 B9 9B 37 6F C6 BA 50 ")
    (data "6E 6C C6 34 91 09 59 88 D4 20 1E 31 8C 07 1F 7C 50 4E 81 0F F9 84 4F C0 24 C7 62 31 FA 11 9F 14 ")
    (data "14 14 88 B4 78 75 A0 96 88 AC 6C A2 E1 45 8B 16 31 89 14 5C E9 55 21 D4 42 CE 44 71 65 30 09 45 ")
    (data "71 F6 0C 55 4E 99 0C 37 6F DE 9C 9F 9F 9F CD 79 0A E1 60 F4 E8 D1 C7 8F 1F 4F 5F A3 20 C8 42 16 ")
    (data "1F C9 64 F2 A4 93 4E 0A 45 46 47 00 18 C6 FF FD DF FF B9 32 C8 83 20 0B 57 4B 21 41 74 10 C8 91 ")
    (data "A6 D7 5E 7B 2D 33 6A C8 9C 2C 00 58 C6 17 5E 78 61 B6 67 23 44 13 40 13 B0 53 BE F9 E6 1B 11 A4 ")
    (data "F3 9B B8 C5 E2 C5 8B 43 A3 A3 E3 40 5E 05 5D D7 47 8C 18 91 05 2F E7 9E 3D 7B B2 38 05 21 3C 41 ")
    (data "07 0B F0 E3 5F FE F2 97 E0 B8 05 7C 9A 57 5C 71 05 DA 0E BE 9E 44 88 13 02 F6 AA A6 69 0B 17 2E ")
    (data "0C 88 2C 84 10 2F BE F8 22 35 8F 87 AE 71 BC A7 0B 20 FD B8 8D 7A B2 70 D5 B1 C3 73 65 65 25 8A ")
    (data "D1 90 2F 25 78 C8 E7 4A 64 0D 1C 73 11 8D 46 83 61 60 68 65 C1 82 05 EB D7 AF 2F 2D 2D 65 5E EE ")
    (data "BB 16 B8 69 30 B3 37 76 EC 58 D1 CC 61 93 0C C9 42 A4 E6 F2 E3 5D 93 27 4F 76 95 44 0D 4C E5 8C ")
    (data "44 22 9E FC 89 3A 30 62 C4 88 F9 F3 E7 57 54 54 04 D3 1F C6 18 85 B6 93 C9 E4 DA B5 6B C7 8D 1B ")
    (data "C7 A4 1C 2A 26 65 58 C9 A9 56 14 FF 0C 80 32 38 E7 EF BC F3 CE 89 B8 43 AB C9 C2 55 D6 4E 08 61 ")
    (data "9A E6 96 2D 5B E4 1C CC 6C 9D 06 73 15 C2 D5 75 3D 1A 8D 2E 5B B6 0C F5 ED DE 7C F3 CD 00 FA 40 ")
    (data "A7 64 9F 7A EA 29 9A 1F 21 C4 B2 65 CB 46 8F 1E 2D 67 6C BB 24 2C 45 13 65 2A F7 15 23 47 8E A4 ")
    (data "53 1A D8 DB F4 63 86 64 01 90 A9 D3 BB 77 6F 97 43 3E 30 AA A7 63 04 D4 28 98 96 A6 69 7F FC E3 ")
    (data "1F 1B 1A 1A 28 65 70 C9 92 25 7E 77 06 C0 C2 CF 99 33 47 4E 33 10 0E E7 A0 5F A3 29 CA C9 C9 A1 ")
    (data "3F 04 35 07 D3 4F 5D D7 17 2C 58 60 B7 A5 64 5E B3 64 E1 2A E5 94 4C 26 9F 7D F6 59 E6 D0 BE 1C ")
    (data "0C 0B 98 55 C8 99 E2 D7 5C 73 CD 8E 1D 3B 48 5E 82 7C 5F 7F FD F5 60 BA 04 83 70 DE BC 79 34 57 ")
    (data "AE 32 04 F7 DD 77 5F 61 61 21 4B 55 86 D2 0B B1 F9 0A 2A 88 2E 52 2B 09 67 48 16 F2 5B 6C DB AE ")
    (data "A9 A9 E9 D7 AF 5F 0B 87 AC FD 46 7A D3 B3 66 CD 12 52 F5 2D C2 AB AF BE 1A C0 46 A4 26 1E 7F FC ")
    (data "71 91 1A D1 C6 71 3A 4C 5D 45 45 45 59 59 99 5C C2 85 86 10 18 B7 C0 4E BE FD F6 DB E5 4D 9E 39 ")
    (data "59 10 92 C9 E4 C3 0F 3F 8C 36 88 FB 65 D1 63 71 F2 C9 27 57 55 55 B9 A2 33 44 C1 6F BC F1 46 00 ")
    (data "7D C0 24 18 86 31 77 EE DC 96 B3 AE 6D DB BE EB AE BB D2 2D A6 60 66 8F 88 AF 7F FF FE 9E 15 FE ")
    (data "DA 4C 16 F8 7B DB B6 F7 EE DD 2B 6B 9A 78 A0 A4 31 16 94 6E 81 87 71 E3 C6 C9 C7 93 44 9A BC 5B ")
    (data "BA 74 A9 DF 9D 01 A0 3C 82 5B 88 D4 BC 35 FA 84 3E 5C B1 62 45 51 51 11 79 21 03 93 BC 64 01 69 ")
    (data "9A 76 E7 9D 77 9E 90 20 4E 40 16 60 83 18 E1 3D F7 DC 13 18 63 70 55 D7 73 D5 09 99 3B 77 EE 09 ")
    (data "CB 80 04 C3 2D 08 AE DC EB 16 F0 C5 17 5F 9C 76 DA 69 A4 1B B9 2C 94 F4 8A C4 4A 40 06 A3 AE EB ")
    (data "79 79 79 55 55 55 AE 5D 04 DA A5 2B 0D 4E 40 16 04 CB B2 A8 8D C0 BC 99 9E C2 78 CD 9A 35 C2 91 ")
    (data "8B 89 44 A2 39 9F 4C 87 25 0B 00 C5 46 5D D4 4F B4 E2 93 C2 81 F7 1B 86 F1 E8 A3 8F 8A 54 ED 47 ")
    (data "5E 68 9A D2 96 B8 05 58 05 55 44 0C 86 EF C9 85 E8 E8 C7 FC FC FC 83 07 0F 82 20 E4 14 C5 CE C5 ")
    (data "2D A8 F3 E3 C6 8D 4B 77 F9 D0 96 53 6B DC 71 A7 54 17 C1 73 AD 5D 9F 34 2B 1A 40 07 07 0E 1C 58 ")
    (data "B5 6A 15 93 AE 03 F2 1B B6 6D C3 09 88 C2 FA B6 6D 33 C6 50 54 C9 30 0C DB B6 21 9E E5 2B B4 3A ")
    (data "05 84 53 7F 9F 73 BE 62 C5 8A B1 63 C7 32 A7 B0 09 96 CD 34 4D FC C8 94 5E FD 04 5A 94 8B D3 CD ")
    (data "98 31 C3 B3 6F 32 9A 25 0B 21 84 A6 69 CF 3D F7 DC DE BD 7B 59 6A 5D 44 BF 81 25 67 8C 81 26 EA ")
    (data "EA EA 06 0D 1A 44 DA BB 69 9A 2C F5 FC 4C 27 02 F5 79 D5 AA 55 63 C6 8C C1 79 5D D3 34 A1 01 D8 ")
    (data "0E 14 8A 12 F0 1E BC 16 B3 B7 64 C9 12 F9 CC 30 F3 0C E5 B4 30 80 FD FB F7 3F F6 D8 63 78 1D 5E ")
    (data "14 C0 05 71 98 11 38 86 85 10 3B 77 EE A4 3D 84 2B 42 C0 33 40 31 01 5C 1A A2 0A 58 1B 7A 36 4D ")
    (data "F3 FD F7 DF 1F 3A 74 A8 61 18 86 61 60 13 E2 17 70 A5 99 AA 76 C1 7D E5 0E EC DA B5 6B F6 EC D9 ")
    (data "C4 3F 64 56 41 CF 2D 31 80 4F 3E F9 E4 D0 A1 43 78 35 8C B1 44 22 A1 AA BB CD 01 57 B0 40 8D 98 ")
    (data "3F 7F 7E 69 69 29 9A 16 42 90 8C C4 24 B2 4E 15 D0 A7 0B 5D 88 DB 31 C6 D6 AE 5D 5B 5C 5C 8C 4F ")
    (data "C0 33 E8 17 54 41 D3 34 6C 1E 9A B4 44 22 F1 C9 27 9F D4 D5 D5 31 89 56 48 C6 35 FE 59 0B FA D1 ")
    (data "C8 91 23 99 D7 61 84 00 C0 39 9F 36 6D 9A EB 62 3D 97 7E D4 5C 5A 73 87 55 39 E5 72 83 34 90 2F ")
    (data "BE F8 22 37 37 97 A5 BA 71 D5 DA 23 AE 85 C3 F3 F6 ED DB 5D 05 33 E5 AE 36 DE 19 29 BF 85 C8 67 ")
    (data "E3 C6 8D A0 26 9E 7A 09 A5 2A C8 E1 66 97 93 E7 AC B3 CE 7A E6 99 67 E4 FE B8 46 C5 3A E1 D9 24 ")
    (data "D7 F1 2A 0C E4 47 3F FA 51 79 79 B9 96 7A 33 94 42 21 C2 D2 16 0E CF 73 E6 CC 21 5E 8B 25 4E 99 ")
    (data "67 79 0B CA 86 DF 86 0D 1B A8 F7 7E 70 C0 82 92 7D 00 00 07 38 49 44 41 54 0B 97 A5 8E E7 9C 9C ")
    (data "1C C3 30 8A 8B 8B 0F 1E 3C 28 9A 3F 17 DF 32 3A 2C B7 F0 04 38 C7 B5 D7 5E 8B B7 05 16 6D 67 8C ")
    (data "89 D4 7C 1A B9 57 9A 70 AE 79 65 A9 F5 AC EE B9 E7 1E 68 2B F8 3D 99 96 55 F5 09 AF 25 22 D5 75 ")
    (data "3D 1E 8F 5B 96 F5 CE 3B EF 14 16 16 0A 49 99 E8 C2 C9 E5 98 D8 F9 F3 E7 8F 18 31 42 D7 75 AC 53 ")
    (data "30 C1 84 FF FD EF 7F B8 A8 97 EE 1A A6 B5 68 24 0B 52 83 81 EA EA EA EF BE FB 8E 31 66 9A 26 69 ")
    (data "7C 7E F4 35 12 89 E0 CD 70 54 C4 62 B1 3F FF F9 CF E7 9F 7F 3E 9C 13 20 1D DB E7 FB 8F B3 0B CC ")
    (data "6A 71 71 F1 13 4F 3C 01 B5 94 C9 AA 9F 6F B0 2C 6B FA F4 E9 8C 31 DC 62 89 49 96 F3 25 34 F8 41 ")
    (data "A9 2B 89 44 62 E9 D2 A5 3B 76 EC 80 AF 82 8C 40 B5 F6 34 63 4C D7 F5 44 22 21 F3 A1 58 2C F6 C0 ")
    (data "03 0F 08 A9 C6 20 0C 7A 85 5C AA 63 C2 B6 ED 8B 2E BA E8 C6 1B 6F 94 99 B7 DF 80 47 CA 76 6E 53 ")
    (data "97 BF D2 84 10 88 95 73 CE 91 E3 14 8D 46 37 6D DA 44 17 82 CB 92 45 AD 2A 84 B7 11 59 68 9A F6 ")
    (data "C2 0B 2F 80 40 B9 73 F3 2C 7E A7 6B 93 05 29 F5 CF 3F FF 3C 3E 09 66 BC DB B7 6F 5F B6 6C 19 F8 ")
    (data "02 AC E2 26 21 02 5E 8D D9 8F C5 62 9A A6 ED D9 B3 E7 E5 97 5F 26 63 97 64 BC 4F 7D 45 13 8C B1 ")
    (data "09 13 26 5C 7D F5 D5 20 05 92 1D E0 28 9D CE E8 68 13 E4 D8 E9 BC 79 F3 02 6B 37 91 48 20 B9 90 ")
    (data "96 B8 C9 CA 63 4E 26 99 70 FC CD BB 76 ED 3A 7C F8 30 7D CE 18 03 29 C9 27 96 DA 0F 97 25 CD 39 ")
    (data "BF F9 E6 9B 1B D5 60 07 E8 52 34 1A ED C2 DC 82 A4 06 70 C3 0D 37 0C 1B 36 2C B0 A6 B7 6D DB 16 ")
    (data "8F C7 69 95 9B C8 82 A8 01 FE 35 4D D3 CA CB CB A9 AF B2 D4 C0 26 56 D8 27 3C 60 D5 CB CA CA C6 ")
    (data "8F 1F 4F EA 27 BE 4A 7F E8 7A 00 B7 E6 0E 8A 8B 8B 6F BA E9 26 7C 25 87 52 5D BB 59 09 74 5D 5F ")
    (data "BE 7C F9 77 DF 7D 27 4B F3 C6 A6 C9 A1 44 6D BF F0 C2 0B 01 30 6D 44 0E 35 4D 8B C7 E3 9C F3 77 ")
    (data "DF 7D B7 CB 0B 8B 16 40 A2 5D 08 71 F7 DD 77 0F 18 30 00 D1 63 50 0C 62 52 4C A9 1C 87 A6 08 9D ")
    (data "21 DD 92 68 6C 0F C9 39 78 88 44 22 01 D8 84 B6 53 CD 53 D7 F5 D3 4F 3F FD 94 53 4E E9 9E 34 81 ")
    (data "85 A7 E4 12 EC D2 BF FF FD EF 58 08 8A 7F BA F8 A8 2A D8 B6 FD F6 DB 6F 0B 21 1A 1A 1A 52 88 43 ")
    (data "A4 FA 10 57 AF 5E 1D 0C C7 E6 9C 53 68 F4 95 57 5E 11 EA EE C5 E8 5C 5E 4E 91 E6 6A 4C 24 12 A0 ")
    (data "09 26 A5 DC 71 E9 B0 96 2A 10 39 52 4F C8 D7 D9 78 34 8A 39 1C 6C CD 9A 35 6A DB 6E 0E C2 49 0F ")
    (data "29 29 29 19 35 6A 94 E8 54 39 35 0A 01 57 32 FC 34 10 16 F0 7F DF 7E FB ED 50 BA 29 44 05 07 83 ")
    (data "DA D6 49 56 B0 54 8F 65 4A F5 79 DB B6 DF 7A EB 2D B5 0D 37 07 90 AA 69 9A E3 C7 8F 2F 2D 2D ED ")
    (data "9E 34 41 80 EB 08 09 69 F8 E4 FA EB AF A7 63 89 64 03 AA 15 EE C2 11 4C 2B 56 AC 10 A9 42 AA 89 ")
    (data "2C 20 E6 EB EB EB 83 09 A0 0B C7 CC B9 EA AA AB 28 2B C9 EF 46 3B 20 88 01 98 A6 29 E7 FD 9E 77 ")
    (data "DE 79 97 5C 72 09 8C 00 B2 14 94 5B 22 10 19 15 15 15 2E B2 6B EC 13 18 D4 97 5F 7E 59 5B 5B 4B ")
    (data "B9 5C 7E 43 D3 B4 DE BD 7B DF 70 C3 0D 10 9C DD 53 E5 64 CE 62 50 5C 10 56 49 34 1A 1D 35 6A 14 ")
    (data "9E B9 54 A6 42 55 A3 10 58 98 F3 97 5E 7A 89 39 34 D0 F8 2D FD 12 63 6C D3 A6 4D 55 55 55 2C 40 ")
    (data "3F 41 FF FE FD 99 64 77 75 73 86 01 10 7D 0C 1B 36 8C 42 42 CA 63 C8 20 02 F8 AB 0A 0A 0A 5C DD ")
    (data "D0 10 83 80 0A BA 7B F7 6E E5 01 F4 E6 00 3D EB A6 9B 6E C2 56 68 EC 4D 77 65 18 E9 10 42 4C 9C ")
    (data "38 B1 77 EF DE 94 4B EB 47 13 F8 F7 D0 A1 43 47 8E 1C 91 93 05 9B 34 1D CE F9 91 23 47 B0 5F 83 ")
    (data "09 EC 72 CE A7 4F 9F 4E 32 35 80 44 D1 4E 04 EC 96 01 03 06 20 F7 40 3E 35 A3 0A B4 1B 6B 6B 6B ")
    (data "0F 1D 3A 94 C2 2D A8 C9 86 86 86 2D 5B B6 50 87 14 36 DF 5C 9F 72 73 73 C9 3C 63 52 3D 90 10 80 ")
    (data "10 E2 E7 3F FF 39 DD 84 EB CA 89 69 27 E4 63 5A C7 8F 1F DF B9 73 67 0A 59 50 0F EA EB EB 77 ED ")
    (data "DA A5 AA D5 13 C2 30 8C 2B AF BC 52 36 C7 BB B9 8D 9A 0E 4D D3 06 0F 1E 4C 25 02 94 5B A7 E4 AF ")
    (data "AA AB AB DB B6 6D 9B CC 0B 1A 53 D4 39 E7 F5 F5 F5 B5 B5 B5 2C A8 60 BF 69 9A 77 DC 71 07 9D 4A ")
    (data "92 D3 D2 43 00 96 65 FD F4 A7 3F 95 A9 41 A1 10 21 BB 06 FF 1E 3E 7C 58 4E A0 6C 8C 90 D9 B6 7D ")
    (data "F4 E8 D1 6F BF FD 56 6D F4 BC 05 70 CE 63 B1 18 C2 22 72 5F 03 68 BA 53 80 5C 5B 24 3B B8 2B 39 ")
    (data "BB DD 10 4E 02 AF AE EB AE 94 9A C6 9D 4A C9 79 30 49 02 B0 08 7A F5 EA 55 5C 5C 8C B0 08 C9 91 ")
    (data "D0 12 21 C0 14 D0 34 6D C8 90 21 8C 31 98 A9 6A 77 2C 9D 2A 23 33 A7 E9 C8 02 7D 0D 8B 20 B0 1C ")
    (data "EB 5E BD 7A E5 E7 E7 2B 39 41 45 81 03 FA 37 18 86 E7 AB 4A 04 6E 21 84 18 3C 78 B0 1C 19 51 F5 ")
    (data "7E 9E 7A F8 71 E5 CA 95 D5 D5 D5 F4 6D 93 CA 99 93 93 83 AC 5A F2 72 28 81 AB 2B F4 3C 78 F0 E0 ")
    (data "53 4F 3D D5 30 0C F2 B5 65 66 9A 0B 27 23 81 DE CF 53 13 5B 7C 02 93 F4 21 3F BC 70 C8 B7 E0 9C ")
    (data "5F 7C F1 C5 74 F4 17 22 5E 09 84 74 60 53 08 51 54 54 94 9F 9F 4F 4B 60 60 06 C9 4C 25 79 E3 87 ")
    (data "98 97 DF 39 68 D0 A0 64 32 49 D9 E8 94 A5 C7 DB B8 F9 C8 2B 2C 6B 45 3E F5 5F 06 89 7C 68 CD B4 ")
    (data "91 54 BD 9F 54 C2 73 CF 3D 37 91 48 50 94 55 D5 FB A9 48 04 15 50 B0 2C 8B E8 4F 23 3A F8 F2 CB ")
    (data "2F A9 43 0A 87 C7 9C 18 8F 6B D6 40 13 48 F5 40 9F 32 9B 56 D0 13 68 1A B3 16 CC 01 02 22 65 E8 ")
    (data "64 C8 97 51 CB E4 69 A3 1A 86 01 DD 5C E1 51 6C 57 3A E6 FE FD FB 21 2B F0 49 53 80 6A E5 CA 95 ")
    (data "28 1A 41 74 A4 0A 72 CA 09 7D 98 97 97 87 01 6B 4E 65 A7 8C B7 02 99 33 AE A3 51 BE 82 3B 95 2E ")
    (data "A9 39 B5 3A 0D 05 2C 73 73 73 C9 11 AC F0 30 3B 6D 42 08 91 AA AA AA 63 C7 8E D1 B7 8D CE 76 B2 ")
    (data "05 C8 A1 A6 AA F9 E6 80 F2 4D 78 C6 F8 33 23 47 EC 21 B9 F3 35 35 35 6A BB EA 09 50 39 E7 BC BE ")
    (data "BE 1E 6E 7B E5 5E 48 CE 39 EE C4 66 FE 9C EA 23 21 C2 18 3B 7C F8 B0 5C 42 BF 91 EF C5 E3 F1 F5 ")
    (data "EB D7 8F 1C 39 92 73 0E DA F4 8F 0F E3 CD C9 64 B2 B0 B0 10 95 33 B0 CF 32 36 8C 93 C9 24 14 8B ")
    (data "64 32 09 19 5C 53 53 E3 B7 2B 9D 73 1E 89 44 8E 1D 3B 96 9F 9F 1F 8D 46 71 2A 53 2D B7 40 A6 96 ")
    (data "10 E2 C8 91 23 74 3F B9 2A F5 82 C2 0E 10 85 D5 D5 D5 2B 56 AC 98 3C 79 32 6E 58 6D 12 87 32 3D ")
    (data "FA 91 1F 46 A0 16 D1 1C F9 6D 32 6B 94 BA 4D EF 81 0E A5 B2 C7 CD 00 EA 11 F3 73 BA 5C 63 91 D3 ")
    (data "B7 D4 C2 35 84 20 A2 62 21 3A 1D FE 1F 1B 46 CF DA 9F 94 55 1E 00 00 00 00 49 45 4E 44 AE 42 60 ")
    (data "82 ")
    )
  )
)
