EESchema Schematic File Version 2
LIBS:power
LIBS:device
LIBS:transistors
LIBS:conn
LIBS:linear
LIBS:regul
LIBS:74xx
LIBS:cmos4000
LIBS:adc-dac
LIBS:memory
LIBS:xilinx
LIBS:microcontrollers
LIBS:dsp
LIBS:microchip
LIBS:analog_switches
LIBS:motorola
LIBS:texas
LIBS:intel
LIBS:audio
LIBS:interface
LIBS:digital-audio
LIBS:philips
LIBS:display
LIBS:cypress
LIBS:siliconi
LIBS:opto
LIBS:atmel
LIBS:contrib
LIBS:valves
LIBS:Adafruit BME280
LIBS:ESP32-PICO-D4
LIBS:FXAS21002C+FXOS8700CQ
LIBS:Adafruit MicroUSB Lipo
LIBS:MPU6050
LIBS:TPS63001
LIBS:Adafruit VL53L0X
LIBS:cp2102
LIBS:switches
LIBS:motors
LIBS:MPU-9250
LIBS:ESP-WROOM-32
LIBS:uQA3-cache
EELAYER 25 0
EELAYER END
$Descr A4 11693 8268
encoding utf-8
Sheet 2 5
Title "Driver Motores"
Date "2018-07-18"
Rev ""
Comp "Claudio J. Paz"
Comment1 "Cuadrotor aéreo no tripulado "
Comment2 "de dimensiones pequeñas "
Comment3 "y estructura abierta uQA3"
Comment4 "2018"
$EndDescr
$Comp
L Q_NMOS_GSD Q1
U 1 1 59613905
P 2700 4400
F 0 "Q1" H 2900 4450 50  0000 L CNN
F 1 "Si2302" H 2900 4350 50  0000 L CNN
F 2 "TO_SOT_Packages_SMD:SOT-23_Handsoldering" H 2900 4500 50  0001 C CNN
F 3 "" H 2700 4400 50  0001 C CNN
	1    2700 4400
	1    0    0    -1  
$EndComp
$Comp
L R R4
U 1 1 596139DC
P 2350 4650
F 0 "R4" V 2430 4650 50  0000 C CNN
F 1 "10K" V 2350 4650 50  0000 C CNN
F 2 "Resistors_SMD:R_0805_HandSoldering" V 2280 4650 50  0001 C CNN
F 3 "" H 2350 4650 50  0001 C CNN
	1    2350 4650
	-1   0    0    1   
$EndComp
$Comp
L R R2
U 1 1 59613A5D
P 2050 4400
F 0 "R2" V 2130 4400 50  0000 C CNN
F 1 "100" V 2050 4400 50  0000 C CNN
F 2 "Resistors_SMD:R_0805_HandSoldering" V 1980 4400 50  0001 C CNN
F 3 "" H 2050 4400 50  0001 C CNN
	1    2050 4400
	0    -1   -1   0   
$EndComp
Text GLabel 1600 4400 0    60   Input ~ 0
PWM0
Wire Wire Line
	1600 4400 1900 4400
Wire Wire Line
	2200 4400 2500 4400
Wire Wire Line
	2350 4400 2350 4500
Connection ~ 2350 4400
$Comp
L Earth #PWR017
U 1 1 59614145
P 2350 4900
F 0 "#PWR017" H 2350 4650 50  0001 C CNN
F 1 "Earth" H 2350 4750 50  0001 C CNN
F 2 "" H 2350 4900 50  0001 C CNN
F 3 "" H 2350 4900 50  0001 C CNN
	1    2350 4900
	1    0    0    -1  
$EndComp
Wire Wire Line
	2350 4900 2350 4800
$Comp
L Earth #PWR018
U 1 1 5961416C
P 2800 4900
F 0 "#PWR018" H 2800 4650 50  0001 C CNN
F 1 "Earth" H 2800 4750 50  0001 C CNN
F 2 "" H 2800 4900 50  0001 C CNN
F 3 "" H 2800 4900 50  0001 C CNN
	1    2800 4900
	1    0    0    -1  
$EndComp
Wire Wire Line
	2800 4900 2800 4600
Wire Wire Line
	2800 4000 2800 4200
Wire Wire Line
	2800 3200 2800 3500
Wire Wire Line
	3250 3600 3250 3400
Wire Wire Line
	3250 3400 2800 3400
Connection ~ 2800 3400
Wire Wire Line
	3250 3900 3250 4100
Wire Wire Line
	3250 4100 2800 4100
Connection ~ 2800 4100
$Comp
L Q_NMOS_GSD Q2
U 1 1 59615648
P 2700 6550
F 0 "Q2" H 2900 6600 50  0000 L CNN
F 1 "Si2302" H 2900 6500 50  0000 L CNN
F 2 "TO_SOT_Packages_SMD:SOT-23_Handsoldering" H 2900 6650 50  0001 C CNN
F 3 "" H 2700 6550 50  0001 C CNN
	1    2700 6550
	1    0    0    -1  
$EndComp
$Comp
L R R5
U 1 1 5961564E
P 2350 6800
F 0 "R5" V 2430 6800 50  0000 C CNN
F 1 "10K" V 2350 6800 50  0000 C CNN
F 2 "Resistors_SMD:R_0805_HandSoldering" V 2280 6800 50  0001 C CNN
F 3 "" H 2350 6800 50  0001 C CNN
	1    2350 6800
	-1   0    0    1   
$EndComp
$Comp
L R R3
U 1 1 59615654
P 2050 6550
F 0 "R3" V 2130 6550 50  0000 C CNN
F 1 "100" V 2050 6550 50  0000 C CNN
F 2 "Resistors_SMD:R_0805_HandSoldering" V 1980 6550 50  0001 C CNN
F 3 "" H 2050 6550 50  0001 C CNN
	1    2050 6550
	0    -1   -1   0   
$EndComp
Text GLabel 1600 6550 0    60   Input ~ 0
PWM1
Wire Wire Line
	1600 6550 1900 6550
Wire Wire Line
	2200 6550 2500 6550
Wire Wire Line
	2350 6550 2350 6650
Connection ~ 2350 6550
$Comp
L Earth #PWR019
U 1 1 5961565F
P 2350 7050
F 0 "#PWR019" H 2350 6800 50  0001 C CNN
F 1 "Earth" H 2350 6900 50  0001 C CNN
F 2 "" H 2350 7050 50  0001 C CNN
F 3 "" H 2350 7050 50  0001 C CNN
	1    2350 7050
	1    0    0    -1  
$EndComp
Wire Wire Line
	2350 7050 2350 6950
$Comp
L Earth #PWR020
U 1 1 59615666
P 2800 7050
F 0 "#PWR020" H 2800 6800 50  0001 C CNN
F 1 "Earth" H 2800 6900 50  0001 C CNN
F 2 "" H 2800 7050 50  0001 C CNN
F 3 "" H 2800 7050 50  0001 C CNN
	1    2800 7050
	1    0    0    -1  
$EndComp
Wire Wire Line
	2800 7050 2800 6750
Wire Wire Line
	2800 6150 2800 6350
Wire Wire Line
	2800 5350 2800 5650
Wire Wire Line
	3250 5750 3250 5550
Wire Wire Line
	3250 5550 2800 5550
Connection ~ 2800 5550
Wire Wire Line
	3250 6050 3250 6250
Wire Wire Line
	3250 6250 2800 6250
Connection ~ 2800 6250
$Comp
L Q_NMOS_GSD Q3
U 1 1 596157B3
P 5100 4400
F 0 "Q3" H 5300 4450 50  0000 L CNN
F 1 "Si2302" H 5300 4350 50  0000 L CNN
F 2 "TO_SOT_Packages_SMD:SOT-23_Handsoldering" H 5300 4500 50  0001 C CNN
F 3 "" H 5100 4400 50  0001 C CNN
	1    5100 4400
	1    0    0    -1  
$EndComp
$Comp
L R R12
U 1 1 596157B9
P 4750 4650
F 0 "R12" V 4830 4650 50  0000 C CNN
F 1 "10K" V 4750 4650 50  0000 C CNN
F 2 "Resistors_SMD:R_0805_HandSoldering" V 4680 4650 50  0001 C CNN
F 3 "" H 4750 4650 50  0001 C CNN
	1    4750 4650
	-1   0    0    1   
$EndComp
$Comp
L R R9
U 1 1 596157BF
P 4450 4400
F 0 "R9" V 4530 4400 50  0000 C CNN
F 1 "100" V 4450 4400 50  0000 C CNN
F 2 "Resistors_SMD:R_0805_HandSoldering" V 4380 4400 50  0001 C CNN
F 3 "" H 4450 4400 50  0001 C CNN
	1    4450 4400
	0    -1   -1   0   
$EndComp
Text GLabel 4000 4400 0    60   Input ~ 0
PWM2
Wire Wire Line
	4000 4400 4300 4400
Wire Wire Line
	4600 4400 4900 4400
Wire Wire Line
	4750 4400 4750 4500
Connection ~ 4750 4400
$Comp
L Earth #PWR021
U 1 1 596157CA
P 4750 4900
F 0 "#PWR021" H 4750 4650 50  0001 C CNN
F 1 "Earth" H 4750 4750 50  0001 C CNN
F 2 "" H 4750 4900 50  0001 C CNN
F 3 "" H 4750 4900 50  0001 C CNN
	1    4750 4900
	1    0    0    -1  
$EndComp
Wire Wire Line
	4750 4900 4750 4800
$Comp
L Earth #PWR022
U 1 1 596157D1
P 5200 4900
F 0 "#PWR022" H 5200 4650 50  0001 C CNN
F 1 "Earth" H 5200 4750 50  0001 C CNN
F 2 "" H 5200 4900 50  0001 C CNN
F 3 "" H 5200 4900 50  0001 C CNN
	1    5200 4900
	1    0    0    -1  
$EndComp
Wire Wire Line
	5200 4900 5200 4600
Wire Wire Line
	5200 4000 5200 4200
Wire Wire Line
	5200 3200 5200 3500
Wire Wire Line
	5650 3600 5650 3400
Wire Wire Line
	5650 3400 5200 3400
Connection ~ 5200 3400
Wire Wire Line
	5650 3900 5650 4100
Wire Wire Line
	5650 4100 5200 4100
Connection ~ 5200 4100
$Comp
L Q_NMOS_GSD Q4
U 1 1 596157F2
P 5100 6550
F 0 "Q4" H 5300 6600 50  0000 L CNN
F 1 "Si2302" H 5300 6500 50  0000 L CNN
F 2 "TO_SOT_Packages_SMD:SOT-23_Handsoldering" H 5300 6650 50  0001 C CNN
F 3 "" H 5100 6550 50  0001 C CNN
	1    5100 6550
	1    0    0    -1  
$EndComp
$Comp
L R R13
U 1 1 596157F8
P 4750 6800
F 0 "R13" V 4830 6800 50  0000 C CNN
F 1 "10K" V 4750 6800 50  0000 C CNN
F 2 "Resistors_SMD:R_0805_HandSoldering" V 4680 6800 50  0001 C CNN
F 3 "" H 4750 6800 50  0001 C CNN
	1    4750 6800
	-1   0    0    1   
$EndComp
$Comp
L R R10
U 1 1 596157FE
P 4450 6550
F 0 "R10" V 4530 6550 50  0000 C CNN
F 1 "100" V 4450 6550 50  0000 C CNN
F 2 "Resistors_SMD:R_0805_HandSoldering" V 4380 6550 50  0001 C CNN
F 3 "" H 4450 6550 50  0001 C CNN
	1    4450 6550
	0    -1   -1   0   
$EndComp
Text GLabel 4000 6550 0    60   Input ~ 0
PWM3
Wire Wire Line
	4000 6550 4300 6550
Wire Wire Line
	4600 6550 4900 6550
Wire Wire Line
	4750 6550 4750 6650
Connection ~ 4750 6550
$Comp
L Earth #PWR023
U 1 1 59615809
P 4750 7050
F 0 "#PWR023" H 4750 6800 50  0001 C CNN
F 1 "Earth" H 4750 6900 50  0001 C CNN
F 2 "" H 4750 7050 50  0001 C CNN
F 3 "" H 4750 7050 50  0001 C CNN
	1    4750 7050
	1    0    0    -1  
$EndComp
Wire Wire Line
	4750 7050 4750 6950
$Comp
L Earth #PWR024
U 1 1 59615810
P 5200 7050
F 0 "#PWR024" H 5200 6800 50  0001 C CNN
F 1 "Earth" H 5200 6900 50  0001 C CNN
F 2 "" H 5200 7050 50  0001 C CNN
F 3 "" H 5200 7050 50  0001 C CNN
	1    5200 7050
	1    0    0    -1  
$EndComp
Wire Wire Line
	5200 7050 5200 6750
Wire Wire Line
	5200 6150 5200 6350
Wire Wire Line
	5200 5350 5200 5650
Wire Wire Line
	5650 5750 5650 5550
Wire Wire Line
	5650 5550 5200 5550
Connection ~ 5200 5550
Wire Wire Line
	5650 6050 5650 6250
Wire Wire Line
	5650 6250 5200 6250
Connection ~ 5200 6250
Text Notes 650  2400 0    60   ~ 0
DRIVER MOTOR CC
Text HLabel 2800 1350 0    60   Input ~ 0
BATERIA
Text HLabel 2800 1500 0    60   Input ~ 0
3.3V
Text HLabel 2800 1650 0    60   Input ~ 0
GND
Text GLabel 3000 1350 2    60   Output ~ 0
BATERIA
Text GLabel 3000 1500 2    60   Output ~ 0
3.3V
$Comp
L Earth #PWR025
U 1 1 599C1EC7
P 3000 1750
F 0 "#PWR025" H 3000 1500 50  0001 C CNN
F 1 "Earth" H 3000 1600 50  0001 C CNN
F 2 "" H 3000 1750 50  0001 C CNN
F 3 "" H 3000 1750 50  0001 C CNN
	1    3000 1750
	1    0    0    -1  
$EndComp
Wire Wire Line
	2800 1650 3000 1650
Wire Wire Line
	3000 1650 3000 1750
Wire Wire Line
	3000 1500 2800 1500
Wire Wire Line
	2800 1350 3000 1350
Text HLabel 4050 1350 0    60   Input ~ 0
PWM0
Text HLabel 4050 1500 0    60   Input ~ 0
PWM1
Text HLabel 4050 1650 0    60   Input ~ 0
PWM2
Text HLabel 4050 1800 0    60   Input ~ 0
PWM3
Text GLabel 4250 1350 2    60   Output ~ 0
PWM0
Text GLabel 4250 1500 2    60   Output ~ 0
PWM1
Text GLabel 4250 1650 2    60   Output ~ 0
PWM2
Text GLabel 4250 1800 2    60   Output ~ 0
PWM3
Wire Wire Line
	4250 1800 4050 1800
Wire Wire Line
	4050 1650 4250 1650
Wire Wire Line
	4250 1500 4050 1500
Wire Wire Line
	4050 1350 4250 1350
Text GLabel 2650 3200 0    60   Input ~ 0
BATERIA
Wire Wire Line
	2650 3200 2800 3200
Text GLabel 5100 3200 0    60   Input ~ 0
BATERIA
Wire Wire Line
	5100 3200 5200 3200
Text GLabel 5100 5350 0    60   Input ~ 0
BATERIA
Wire Wire Line
	5100 5350 5200 5350
Text GLabel 2700 5350 0    60   Input ~ 0
BATERIA
Wire Wire Line
	2700 5350 2800 5350
Text Notes 650  750  0    60   ~ 0
REFERENCIAS
$Comp
L D D2
U 1 1 5B0EF8DA
P 3250 3750
F 0 "D2" H 3250 3850 50  0000 C CNN
F 1 "1N4148" H 3250 3650 50  0000 C CNN
F 2 "Diodes_SMD:D_SOD-123" H 3250 3750 50  0001 C CNN
F 3 "" H 3250 3750 50  0001 C CNN
	1    3250 3750
	0    1    1    0   
$EndComp
$Comp
L D D7
U 1 1 5B0EFAAD
P 5650 3750
F 0 "D7" H 5650 3850 50  0000 C CNN
F 1 "1N4148" H 5650 3650 50  0000 C CNN
F 2 "Diodes_SMD:D_SOD-123" H 5650 3750 50  0001 C CNN
F 3 "" H 5650 3750 50  0001 C CNN
	1    5650 3750
	0    1    1    0   
$EndComp
$Comp
L D D8
U 1 1 5B0EFBE7
P 5650 5900
F 0 "D8" H 5650 6000 50  0000 C CNN
F 1 "1N4148" H 5650 5800 50  0000 C CNN
F 2 "Diodes_SMD:D_SOD-123" H 5650 5900 50  0001 C CNN
F 3 "" H 5650 5900 50  0001 C CNN
	1    5650 5900
	0    1    1    0   
$EndComp
$Comp
L D D3
U 1 1 5B0EFF01
P 3250 5900
F 0 "D3" H 3250 6000 50  0000 C CNN
F 1 "1N4148" H 3250 5800 50  0000 C CNN
F 2 "Diodes_SMD:D_SOD-123" H 3250 5900 50  0001 C CNN
F 3 "" H 3250 5900 50  0001 C CNN
	1    3250 5900
	0    1    1    0   
$EndComp
$Comp
L Motor_DC M1
U 1 1 5B0F0FB6
P 2800 3700
F 0 "M1" H 2900 3800 50  0000 L CNN
F 1 "CW" H 2900 3500 50  0000 L TNN
F 2 "Pin_Headers:Pin_Header_Straight_1x02_Pitch2.54mm" H 2800 3610 50  0001 C CNN
F 3 "" H 2800 3610 50  0001 C CNN
	1    2800 3700
	1    0    0    -1  
$EndComp
$Comp
L Motor_DC M3
U 1 1 5B0F15D0
P 5200 3700
F 0 "M3" H 5300 3800 50  0000 L CNN
F 1 "CCW" H 5300 3500 50  0000 L TNN
F 2 "Pin_Headers:Pin_Header_Straight_1x02_Pitch2.54mm" H 5200 3610 50  0001 C CNN
F 3 "" H 5200 3610 50  0001 C CNN
	1    5200 3700
	1    0    0    -1  
$EndComp
$Comp
L Motor_DC M4
U 1 1 5B0F1652
P 5200 5850
F 0 "M4" H 5300 5950 50  0000 L CNN
F 1 "CCW" H 5300 5650 50  0000 L TNN
F 2 "Pin_Headers:Pin_Header_Straight_1x02_Pitch2.54mm" H 5200 5760 50  0001 C CNN
F 3 "" H 5200 5760 50  0001 C CNN
	1    5200 5850
	1    0    0    -1  
$EndComp
$Comp
L Motor_DC M2
U 1 1 5B0F16ED
P 2800 5850
F 0 "M2" H 2900 5950 50  0000 L CNN
F 1 "CW" H 2900 5650 50  0000 L TNN
F 2 "Pin_Headers:Pin_Header_Straight_1x02_Pitch2.54mm" H 2800 5760 50  0001 C CNN
F 3 "" H 2800 5760 50  0001 C CNN
	1    2800 5850
	1    0    0    -1  
$EndComp
Wire Notes Line
	600  7700 7000 7700
Wire Notes Line
	7000 7700 7000 6000
Wire Notes Line
	11050 6000 11050 600 
Wire Notes Line
	600  600  600  7700
Wire Notes Line
	7000 6050 7000 600 
Wire Notes Line
	600  2250 7000 2250
Wire Notes Line
	7100 6000 7100 600 
Wire Notes Line
	7100 600  11050 600 
Wire Notes Line
	7000 600  600  600 
Wire Notes Line
	7100 6000 11050 6000
$EndSCHEMATC
