(export (version D)
  (design
    (source /home/joakocero/uQA3/shield_carbon/shield_carbon.sch)
    (date "sáb 12 ago 2017 17:23:17 ART")
    (tool "Eeschema 4.0.4+e1-6308~48~ubuntu14.04.1-stable")
    (sheet (number 1) (name /) (tstamps /)
      (title_block
        (title)
        (company)
        (rev)
        (date)
        (source shield_carbon.sch)
        (comment (number 1) (value ""))
        (comment (number 2) (value ""))
        (comment (number 3) (value ""))
        (comment (number 4) (value "")))))
  (components
    (comp (ref P1)
      (value CONN_02X15)
      (footprint Pin_Headers:Pin_Header_Straight_2x15_Pitch2.54mm)
      (libsource (lib conn) (part CONN_02X15))
      (sheetpath (names /) (tstamps /))
      (tstamp 598F3013))
    (comp (ref P5)
      (value IMU)
      (footprint Pin_Headers:Pin_Header_Straight_1x06_Pitch2.54mm)
      (libsource (lib conn) (part CONN_01X06))
      (sheetpath (names /) (tstamps /))
      (tstamp 598F316F))
    (comp (ref P6)
      (value IMU_INT)
      (footprint Pin_Headers:Pin_Header_Straight_1x04_Pitch2.54mm)
      (libsource (lib conn) (part CONN_01X04))
      (sheetpath (names /) (tstamps /))
      (tstamp 598F31D0))
    (comp (ref P4)
      (value IR)
      (footprint Pin_Headers:Pin_Header_Straight_1x07_Pitch2.54mm)
      (libsource (lib conn) (part CONN_01X07))
      (sheetpath (names /) (tstamps /))
      (tstamp 598F3DB9))
    (comp (ref P2)
      (value CONN_01X15)
      (footprint Pin_Headers:Pin_Header_Straight_1x15_Pitch2.54mm)
      (libsource (lib conn) (part CONN_01X15))
      (sheetpath (names /) (tstamps /))
      (tstamp 598F47F3))
    (comp (ref P3)
      (value CONN_01X15)
      (footprint Pin_Headers:Pin_Header_Straight_1x15_Pitch2.54mm)
      (libsource (lib conn) (part CONN_01X15))
      (sheetpath (names /) (tstamps /))
      (tstamp 598F4919))
    (comp (ref D1)
      (value LED)
      (footprint LEDs:LED_D5.0mm)
      (libsource (lib device) (part LED))
      (sheetpath (names /) (tstamps /))
      (tstamp 598F5357))
    (comp (ref R1)
      (value 330)
      (footprint Resistors_ThroughHole:R_Axial_DIN0207_L6.3mm_D2.5mm_P15.24mm_Horizontal)
      (libsource (lib device) (part R))
      (sheetpath (names /) (tstamps /))
      (tstamp 598F542C))
    (comp (ref P7)
      (value BARO)
      (footprint Pin_Headers:Pin_Header_Straight_1x07_Pitch2.00mm)
      (libsource (lib conn) (part CONN_01X07))
      (sheetpath (names /) (tstamps /))
      (tstamp 598F55EB))
    (comp (ref D2)
      (value LED)
      (footprint LEDs:LED_D5.0mm)
      (libsource (lib device) (part LED))
      (sheetpath (names /) (tstamps /))
      (tstamp 598F5A0D))
    (comp (ref R2)
      (value 330)
      (footprint Resistors_ThroughHole:R_Axial_DIN0207_L6.3mm_D2.5mm_P15.24mm_Horizontal)
      (libsource (lib device) (part R))
      (sheetpath (names /) (tstamps /))
      (tstamp 598F5A13))
    (comp (ref D3)
      (value LED)
      (footprint LEDs:LED_D5.0mm)
      (libsource (lib device) (part LED))
      (sheetpath (names /) (tstamps /))
      (tstamp 598F5CDA))
    (comp (ref R3)
      (value 330)
      (footprint Resistors_ThroughHole:R_Axial_DIN0207_L6.3mm_D2.5mm_P15.24mm_Horizontal)
      (libsource (lib device) (part R))
      (sheetpath (names /) (tstamps /))
      (tstamp 598F5CE0))
    (comp (ref D4)
      (value LED)
      (footprint LEDs:LED_D5.0mm)
      (libsource (lib device) (part LED))
      (sheetpath (names /) (tstamps /))
      (tstamp 598F5CEE))
    (comp (ref R4)
      (value 330)
      (footprint Resistors_ThroughHole:R_Axial_DIN0207_L6.3mm_D2.5mm_P15.24mm_Horizontal)
      (libsource (lib device) (part R))
      (sheetpath (names /) (tstamps /))
      (tstamp 598F5CF4))
    (comp (ref P8)
      (value CONN_01X15)
      (footprint Pin_Headers:Pin_Header_Straight_1x15_Pitch2.54mm)
      (libsource (lib conn) (part CONN_01X15))
      (sheetpath (names /) (tstamps /))
      (tstamp 598FB878))
    (comp (ref P9)
      (value CONN_01X15)
      (footprint Pin_Headers:Pin_Header_Straight_1x15_Pitch2.54mm)
      (libsource (lib conn) (part CONN_01X15))
      (sheetpath (names /) (tstamps /))
      (tstamp 598FB87E)))
  (libparts
    (libpart (lib conn) (part CONN_01X04)
      (description "Connector 01x04")
      (footprints
        (fp Pin_Header_Straight_1X04)
        (fp Pin_Header_Angled_1X04)
        (fp Socket_Strip_Straight_1X04)
        (fp Socket_Strip_Angled_1X04))
      (fields
        (field (name Reference) P)
        (field (name Value) CONN_01X04))
      (pins
        (pin (num 1) (name P1) (type passive))
        (pin (num 2) (name P2) (type passive))
        (pin (num 3) (name P3) (type passive))
        (pin (num 4) (name P4) (type passive))))
    (libpart (lib conn) (part CONN_01X06)
      (description "Connector 01x06")
      (footprints
        (fp Pin_Header_Straight_1X06)
        (fp Pin_Header_Angled_1X06)
        (fp Socket_Strip_Straight_1X06)
        (fp Socket_Strip_Angled_1X06))
      (fields
        (field (name Reference) P)
        (field (name Value) CONN_01X06))
      (pins
        (pin (num 1) (name P1) (type passive))
        (pin (num 2) (name P2) (type passive))
        (pin (num 3) (name P3) (type passive))
        (pin (num 4) (name P4) (type passive))
        (pin (num 5) (name P5) (type passive))
        (pin (num 6) (name P6) (type passive))))
    (libpart (lib conn) (part CONN_01X07)
      (description "Connector 01x07")
      (footprints
        (fp Pin_Header_Straight_1X07)
        (fp Pin_Header_Angled_1X07)
        (fp Socket_Strip_Straight_1X07)
        (fp Socket_Strip_Angled_1X07))
      (fields
        (field (name Reference) P)
        (field (name Value) CONN_01X07))
      (pins
        (pin (num 1) (name P1) (type passive))
        (pin (num 2) (name P2) (type passive))
        (pin (num 3) (name P3) (type passive))
        (pin (num 4) (name P4) (type passive))
        (pin (num 5) (name P5) (type passive))
        (pin (num 6) (name P6) (type passive))
        (pin (num 7) (name P7) (type passive))))
    (libpart (lib conn) (part CONN_01X15)
      (description "Connector 01x15")
      (footprints
        (fp Pin_Header_Straight_1X15)
        (fp Pin_Header_Angled_1X15)
        (fp Socket_Strip_Straight_1X15)
        (fp Socket_Strip_Angled_1X15))
      (fields
        (field (name Reference) P)
        (field (name Value) CONN_01X15))
      (pins
        (pin (num 1) (name P1) (type passive))
        (pin (num 2) (name P2) (type passive))
        (pin (num 3) (name P3) (type passive))
        (pin (num 4) (name P4) (type passive))
        (pin (num 5) (name P5) (type passive))
        (pin (num 6) (name P6) (type passive))
        (pin (num 7) (name P7) (type passive))
        (pin (num 8) (name P8) (type passive))
        (pin (num 9) (name P9) (type passive))
        (pin (num 10) (name P10) (type passive))
        (pin (num 11) (name P11) (type passive))
        (pin (num 12) (name P12) (type passive))
        (pin (num 13) (name P13) (type passive))
        (pin (num 14) (name P14) (type passive))
        (pin (num 15) (name P15) (type passive))))
    (libpart (lib conn) (part CONN_02X15)
      (description "Connector 02x15")
      (footprints
        (fp Pin_Header_Straight_2X15)
        (fp Pin_Header_Angled_2X15)
        (fp Socket_Strip_Straight_2X15)
        (fp Socket_Strip_Angled_2X15))
      (fields
        (field (name Reference) P)
        (field (name Value) CONN_02X15))
      (pins
        (pin (num 1) (name P1) (type passive))
        (pin (num 2) (name P2) (type passive))
        (pin (num 3) (name P3) (type passive))
        (pin (num 4) (name P4) (type passive))
        (pin (num 5) (name P5) (type passive))
        (pin (num 6) (name P6) (type passive))
        (pin (num 7) (name P7) (type passive))
        (pin (num 8) (name P8) (type passive))
        (pin (num 9) (name P9) (type passive))
        (pin (num 10) (name P10) (type passive))
        (pin (num 11) (name P11) (type passive))
        (pin (num 12) (name P12) (type passive))
        (pin (num 13) (name P13) (type passive))
        (pin (num 14) (name P14) (type passive))
        (pin (num 15) (name P15) (type passive))
        (pin (num 16) (name P16) (type passive))
        (pin (num 17) (name P17) (type passive))
        (pin (num 18) (name P18) (type passive))
        (pin (num 19) (name P19) (type passive))
        (pin (num 20) (name P20) (type passive))
        (pin (num 21) (name P21) (type passive))
        (pin (num 22) (name P22) (type passive))
        (pin (num 23) (name P23) (type passive))
        (pin (num 24) (name P24) (type passive))
        (pin (num 25) (name P25) (type passive))
        (pin (num 26) (name P26) (type passive))
        (pin (num 27) (name P27) (type passive))
        (pin (num 28) (name P28) (type passive))
        (pin (num 29) (name P29) (type passive))
        (pin (num 30) (name P30) (type passive))))
    (libpart (lib device) (part LED)
      (footprints
        (fp LED-3MM)
        (fp LED-5MM)
        (fp LED-10MM)
        (fp LED-0603)
        (fp LED-0805)
        (fp LED-1206)
        (fp LEDV))
      (fields
        (field (name Reference) D)
        (field (name Value) LED))
      (pins
        (pin (num 1) (name K) (type passive))
        (pin (num 2) (name A) (type passive))))
    (libpart (lib device) (part R)
      (description Resistor)
      (footprints
        (fp R_*)
        (fp Resistor_*))
      (fields
        (field (name Reference) R)
        (field (name Value) R))
      (pins
        (pin (num 1) (name ~) (type passive))
        (pin (num 2) (name ~) (type passive)))))
  (libraries
    (library (logical device)
      (uri /usr/share/kicad/library/device.lib))
    (library (logical conn)
      (uri /usr/share/kicad/library/conn.lib)))
  (nets
    (net (code 1) (name "Net-(D4-Pad2)")
      (node (ref R4) (pin 2))
      (node (ref D4) (pin 2)))
    (net (code 2) (name "Net-(D3-Pad2)")
      (node (ref R3) (pin 2))
      (node (ref D3) (pin 2)))
    (net (code 3) (name "Net-(D2-Pad2)")
      (node (ref R2) (pin 2))
      (node (ref D2) (pin 2)))
    (net (code 4) (name "Net-(D1-Pad2)")
      (node (ref R1) (pin 2))
      (node (ref D1) (pin 2)))
    (net (code 5) (name UART_RX)
      (node (ref P2) (pin 3))
      (node (ref P9) (pin 5))
      (node (ref P1) (pin 5)))
    (net (code 6) (name PWM4)
      (node (ref R4) (pin 1))
      (node (ref P1) (pin 20))
      (node (ref P3) (pin 6)))
    (net (code 7) (name PWM2)
      (node (ref P1) (pin 18))
      (node (ref R2) (pin 1))
      (node (ref P3) (pin 7)))
    (net (code 8) (name ACC_INT2)
      (node (ref P6) (pin 1))
      (node (ref P3) (pin 4))
      (node (ref P1) (pin 24)))
    (net (code 9) (name GYRO_INT2)
      (node (ref P3) (pin 5))
      (node (ref P1) (pin 22))
      (node (ref P6) (pin 3)))
    (net (code 10) (name RST_BTN)
      (node (ref P1) (pin 29))
      (node (ref P2) (pin 15)))
    (net (code 11) (name PB10/PWM1/I2C2_SCL)
      (node (ref P2) (pin 14))
      (node (ref P1) (pin 27)))
    (net (code 12) (name PC4/ADC1_IN14)
      (node (ref P2) (pin 8))
      (node (ref P1) (pin 15)))
    (net (code 13) (name PC2/ADC_IN12)
      (node (ref P2) (pin 7))
      (node (ref P1) (pin 13)))
    (net (code 14) (name PA1/UART2_RTS)
      (node (ref P1) (pin 7))
      (node (ref P2) (pin 4)))
    (net (code 15) (name PB12/SPI2_SS)
      (node (ref P3) (pin 15))
      (node (ref P1) (pin 2)))
    (net (code 16) (name UART_TX)
      (node (ref P2) (pin 2))
      (node (ref P9) (pin 6))
      (node (ref P1) (pin 3)))
    (net (code 17) (name PA0/UART2_CTS)
      (node (ref P2) (pin 1))
      (node (ref P1) (pin 1)))
    (net (code 18) (name GPIO_IR)
      (node (ref P4) (pin 4))
      (node (ref P2) (pin 13))
      (node (ref P1) (pin 25)))
    (net (code 19) (name PWM3)
      (node (ref R3) (pin 1))
      (node (ref P2) (pin 10))
      (node (ref P1) (pin 19)))
    (net (code 20) (name PWM1)
      (node (ref P2) (pin 9))
      (node (ref P1) (pin 17))
      (node (ref R1) (pin 1)))
    (net (code 21) (name SDA)
      (node (ref P1) (pin 23))
      (node (ref P7) (pin 2))
      (node (ref P2) (pin 12))
      (node (ref P4) (pin 1))
      (node (ref P5) (pin 2)))
    (net (code 22) (name SCL)
      (node (ref P1) (pin 21))
      (node (ref P7) (pin 4))
      (node (ref P4) (pin 2))
      (node (ref P5) (pin 3))
      (node (ref P2) (pin 11)))
    (net (code 23) (name GND)
      (node (ref P7) (pin 5))
      (node (ref D1) (pin 1))
      (node (ref D4) (pin 1))
      (node (ref P1) (pin 10))
      (node (ref P3) (pin 11))
      (node (ref D3) (pin 1))
      (node (ref P5) (pin 4))
      (node (ref D2) (pin 1))
      (node (ref P1) (pin 9))
      (node (ref P2) (pin 5))
      (node (ref P8) (pin 14))
      (node (ref P4) (pin 5)))
    (net (code 24) (name Vcc_5V)
      (node (ref P7) (pin 7))
      (node (ref P5) (pin 6))
      (node (ref P8) (pin 15))
      (node (ref P2) (pin 6))
      (node (ref P1) (pin 11))
      (node (ref P4) (pin 7)))
    (net (code 25) (name PC1/ADC_IN11)
      (node (ref P3) (pin 2))
      (node (ref P1) (pin 28)))
    (net (code 26) (name NC1)
      (node (ref P1) (pin 30))
      (node (ref P3) (pin 1)))
    (net (code 27) (name PC0/ADC_IN10)
      (node (ref P1) (pin 26))
      (node (ref P3) (pin 3)))
    (net (code 28) (name PC5/ADC1_IN15)
      (node (ref P3) (pin 8))
      (node (ref P1) (pin 16)))
    (net (code 29) (name PC3/ADC_IN13)
      (node (ref P1) (pin 14))
      (node (ref P3) (pin 9)))
    (net (code 30) (name VCC2)
      (node (ref P3) (pin 10))
      (node (ref P1) (pin 12)))
    (net (code 31) (name PB13/SPI2_SCK)
      (node (ref P3) (pin 12))
      (node (ref P1) (pin 8)))
    (net (code 32) (name PB14/SPI2_MISO)
      (node (ref P3) (pin 13))
      (node (ref P1) (pin 6)))
    (net (code 33) (name PB15/SPI2_MOSI)
      (node (ref P1) (pin 4))
      (node (ref P3) (pin 14)))
    (net (code 34) (name "Net-(P8-Pad10)")
      (node (ref P8) (pin 10)))
    (net (code 35) (name "Net-(P9-Pad4)")
      (node (ref P9) (pin 4)))
    (net (code 36) (name "Net-(P9-Pad3)")
      (node (ref P9) (pin 3)))
    (net (code 37) (name "Net-(P9-Pad2)")
      (node (ref P9) (pin 2)))
    (net (code 38) (name "Net-(P9-Pad1)")
      (node (ref P9) (pin 1)))
    (net (code 39) (name "Net-(P8-Pad13)")
      (node (ref P8) (pin 13)))
    (net (code 40) (name "Net-(P8-Pad12)")
      (node (ref P8) (pin 12)))
    (net (code 41) (name "Net-(P8-Pad11)")
      (node (ref P8) (pin 11)))
    (net (code 42) (name "Net-(P8-Pad9)")
      (node (ref P8) (pin 9)))
    (net (code 43) (name "Net-(P8-Pad8)")
      (node (ref P8) (pin 8)))
    (net (code 44) (name "Net-(P8-Pad7)")
      (node (ref P8) (pin 7)))
    (net (code 45) (name "Net-(P8-Pad6)")
      (node (ref P8) (pin 6)))
    (net (code 46) (name "Net-(P8-Pad5)")
      (node (ref P8) (pin 5)))
    (net (code 47) (name "Net-(P8-Pad4)")
      (node (ref P8) (pin 4)))
    (net (code 48) (name "Net-(P8-Pad3)")
      (node (ref P8) (pin 3)))
    (net (code 49) (name "Net-(P8-Pad2)")
      (node (ref P8) (pin 2)))
    (net (code 50) (name "Net-(P8-Pad1)")
      (node (ref P8) (pin 1)))
    (net (code 51) (name "Net-(P9-Pad14)")
      (node (ref P9) (pin 14)))
    (net (code 52) (name "Net-(P9-Pad15)")
      (node (ref P9) (pin 15)))
    (net (code 53) (name "Net-(P9-Pad13)")
      (node (ref P9) (pin 13)))
    (net (code 54) (name "Net-(P9-Pad12)")
      (node (ref P9) (pin 12)))
    (net (code 55) (name "Net-(P9-Pad11)")
      (node (ref P9) (pin 11)))
    (net (code 56) (name "Net-(P9-Pad10)")
      (node (ref P9) (pin 10)))
    (net (code 57) (name "Net-(P9-Pad9)")
      (node (ref P9) (pin 9)))
    (net (code 58) (name "Net-(P9-Pad8)")
      (node (ref P9) (pin 8)))
    (net (code 59) (name "Net-(P9-Pad7)")
      (node (ref P9) (pin 7)))
    (net (code 60) (name "Net-(P4-Pad6)")
      (node (ref P4) (pin 6)))
    (net (code 61) (name "Net-(P4-Pad3)")
      (node (ref P4) (pin 3)))
    (net (code 62) (name "Net-(P6-Pad4)")
      (node (ref P6) (pin 4)))
    (net (code 63) (name "Net-(P6-Pad2)")
      (node (ref P6) (pin 2)))
    (net (code 64) (name "Net-(P5-Pad5)")
      (node (ref P5) (pin 5)))
    (net (code 65) (name "Net-(P5-Pad1)")
      (node (ref P5) (pin 1)))
    (net (code 66) (name "Net-(P7-Pad6)")
      (node (ref P7) (pin 6)))
    (net (code 67) (name "Net-(P7-Pad3)")
      (node (ref P7) (pin 3)))
    (net (code 68) (name "Net-(P7-Pad1)")
      (node (ref P7) (pin 1)))))