PCBNEW-LibModule-V1  
# encoding utf-8
Units mm
$INDEX
BMC-150-LGA-14
$EndINDEX
$MODULE BMC-150-LGA-14
Po 0 0 0 15 00000000 00000000 ~~
Li BMC-150-LGA-14
Cd 
Sc 00000000
At SMD
Op 0 0 0
.SolderMask 0
.SolderPaste 0
T0 0 0 1 0.9 0 0.05 N H 21 "BMC-150-LGA-14"
T1 0 0 1 0.9 0 0.05 N H 21 "VAL**"
DS -1.1 -0.8 -1.1 -0.5 0.1 21
DS -1.1 1.1 1.1 1.1 0.1 21
DS 1.1 1.1 1.1 -1.1 0.1 21
DS 1.1 -1.1 -1.1 -1.1 0.1 21
DS -1.1 -1.1 -1.1 1.1 0.1 21
DS -1.4 -0.8 -1.4 -1.3 0.1 21
DS -1.4 -1.3 -0.9 -1.3 0.1 21
DS 0 -1.5 0 -2.3 0.1 21
DS 0 -2.3 -0.2 -2 0.1 21
DS -0.2 -2 0.2 -2 0.1 21
DS 0.2 -2 0 -2.3 0.1 21
DS -1.5 0 -2.3 0 0.1 21
DS -2.3 0 -2 -0.2 0.1 21
DS -2 -0.2 -2 0.2 0.1 21
DS -2 0.2 -2.3 0 0.1 21
DC 2 0 2.1 0 0.1 21
DP 0 0 0 0 4 0.381 23
Dl -0.165306 -1.0725
Dl 0.165 -1.0725
Dl 0.165 -0.653711
Dl -0.165306 -0.653711
DP 0 0 0 0 4 0.381 23
Dl -0.5655 -1.0725
Dl -0.235 -1.0725
Dl -0.235 -0.653077
Dl -0.5655 -0.653077
DP 0 0 0 0 4 0.381 23
Dl 0.23517 -1.0725
Dl 0.565 -1.0725
Dl 0.565 -0.652973
Dl 0.23517 -0.652973
DP 0 0 0 0 4 0.381 23
Dl -1.07363 -0.765
Dl -0.6525 -0.765
Dl -0.6525 -0.435459
Dl -1.07363 -0.435459
DP 0 0 0 0 4 0.381 23
Dl -1.0737 -0.365
Dl -0.6525 -0.365
Dl -0.6525 -0.035039
Dl -1.0737 -0.035039
DP 0 0 0 0 4 0.381 23
Dl -1.07362 0.035
Dl -0.6525 0.035
Dl -0.6525 0.365382
Dl -1.07362 0.365382
DP 0 0 0 0 4 0.381 23
Dl -1.07266 0.435
Dl -0.6525 0.435
Dl -0.6525 0.765116
Dl -1.07266 0.765116
DP 0 0 0 0 4 0.381 23
Dl 0.653021 0.435
Dl 1.0725 0.435
Dl 1.0725 0.76561
Dl 0.653021 0.76561
DP 0 0 0 0 4 0.381 23
Dl 0.652914 0.035
Dl 1.0725 0.035
Dl 1.0725 0.365232
Dl 0.652914 0.365232
DP 0 0 0 0 4 0.381 23
Dl 0.653673 -0.365
Dl 1.0725 -0.365
Dl 1.0725 -0.0350629
Dl 0.653673 -0.0350629
DP 0 0 0 0 4 0.381 23
Dl 0.653233 -0.765
Dl 1.0725 -0.765
Dl 1.0725 -0.435489
Dl 0.653233 -0.435489
DP 0 0 0 0 4 0.381 23
Dl -0.565575 0.6525
Dl -0.235 0.6525
Dl -0.235 1.07359
Dl -0.565575 1.07359
DP 0 0 0 0 4 0.381 23
Dl -0.165124 0.6525
Dl 0.165 0.6525
Dl 0.165 1.07331
Dl -0.165124 1.07331
DP 0 0 0 0 4 0.381 23
Dl 0.235443 0.6525
Dl 0.565 0.6525
Dl 0.565 1.07452
Dl 0.235443 1.07452
DP 0 0 0 0 4 0.381 19
Dl -0.100178 -1
Dl 0.1 -1
Dl 0.1 -0.726293
Dl -0.100178 -0.726293
DP 0 0 0 0 4 0.381 19
Dl -0.500982 -1
Dl -0.3 -1
Dl -0.3 -0.726424
Dl -0.500982 -0.726424
DP 0 0 0 0 4 0.381 19
Dl 0.300308 -1
Dl 0.5 -1
Dl 0.5 -0.725745
Dl 0.300308 -0.725745
DP 0 0 0 0 4 0.381 19
Dl -1.00049 -0.7
Dl -0.725 -0.7
Dl -0.725 -0.500246
Dl -1.00049 -0.500246
DP 0 0 0 0 4 0.381 19
Dl -1.00086 -0.3
Dl -0.725 -0.3
Dl -0.725 -0.100086
Dl -1.00086 -0.100086
DP 0 0 0 0 4 0.381 19
Dl -1.00163 0.1
Dl -0.725 0.1
Dl -0.725 0.300489
Dl -1.00163 0.300489
DP 0 0 0 0 4 0.381 19
Dl -1.00096 0.5
Dl -0.725 0.5
Dl -0.725 0.700674
Dl -1.00096 0.700674
DP 0 0 0 0 4 0.381 19
Dl -0.500575 0.725
Dl -0.3 0.725
Dl -0.3 1.00115
Dl -0.500575 1.00115
DP 0 0 0 0 4 0.381 19
Dl 0.725652 0.5
Dl 1 0.5
Dl 1 0.700629
Dl 0.725652 0.700629
DP 0 0 0 0 4 0.381 19
Dl -0.100059 0.725
Dl 0.1 0.725
Dl 0.1 1.00059
Dl -0.100059 1.00059
DP 0 0 0 0 4 0.381 19
Dl 0.300143 0.725
Dl 0.5 0.725
Dl 0.5 1.00048
Dl 0.300143 1.00048
DP 0 0 0 0 4 0.381 19
Dl 0.7251 0.1
Dl 1 0.1
Dl 1 0.300041
Dl 0.7251 0.300041
DP 0 0 0 0 4 0.381 19
Dl 0.725733 -0.3
Dl 1 -0.3
Dl 1 -0.100101
Dl 0.725733 -0.100101
DP 0 0 0 0 4 0.381 19
Dl 0.725179 -0.7
Dl 1 -0.7
Dl 1 -0.500124
Dl 0.725179 -0.500124
$PAD
Sh "P$14" R 0.32 0.23 0 0 900
At SMD N 00888000
Ne 0 ""
Po -0.4 -0.8625
$EndPAD
$PAD
Sh "P$13" R 0.32 0.23 0 0 900
At SMD N 00888000
Ne 0 ""
Po 0 -0.8625
$EndPAD
$PAD
Sh "P$12" R 0.32 0.23 0 0 900
At SMD N 00888000
Ne 0 ""
Po 0.4 -0.8625
$EndPAD
$PAD
Sh "P$5" R 0.32 0.23 0 0 900
At SMD N 00888000
Ne 0 ""
Po -0.4 0.8625
$EndPAD
$PAD
Sh "P$6" R 0.32 0.23 0 0 900
At SMD N 00888000
Ne 0 ""
Po 0 0.8625
$EndPAD
$PAD
Sh "P$7" R 0.32 0.23 0 0 900
At SMD N 00888000
Ne 0 ""
Po 0.4 0.8625
$EndPAD
$PAD
Sh "P$1" R 0.32 0.23 0 0 1800
At SMD N 00888000
Ne 0 ""
Po -0.8625 -0.6
$EndPAD
$PAD
Sh "P$2" R 0.32 0.23 0 0 1800
At SMD N 00888000
Ne 0 ""
Po -0.8625 -0.2
$EndPAD
$PAD
Sh "P$3" R 0.32 0.23 0 0 1800
At SMD N 00888000
Ne 0 ""
Po -0.8625 0.2
$EndPAD
$PAD
Sh "P$4" R 0.32 0.23 0 0 1800
At SMD N 00888000
Ne 0 ""
Po -0.8625 0.6
$EndPAD
$PAD
Sh "P$8" R 0.32 0.23 0 0 1800
At SMD N 00888000
Ne 0 ""
Po 0.8625 0.6
$EndPAD
$PAD
Sh "P$9" R 0.32 0.23 0 0 1800
At SMD N 00888000
Ne 0 ""
Po 0.8625 0.2
$EndPAD
$PAD
Sh "P$10" R 0.32 0.23 0 0 1800
At SMD N 00888000
Ne 0 ""
Po 0.8625 -0.2
$EndPAD
$PAD
Sh "P$11" R 0.32 0.23 0 0 1800
At SMD N 00888000
Ne 0 ""
Po 0.8625 -0.6
$EndPAD
$EndMODULE BMC-150-LGA-14
