PCBNEW-LibModule-V1  
# encoding utf-8
Units mm
$INDEX
SOT95P275X110-6N
$EndINDEX
$MODULE SOT95P275X110-6N
Po 0 0 0 15 00000000 00000000 ~~
Li SOT95P275X110-6N
Cd 
Sc 00000000
At SMD
Op 0 0 0
.SolderMask 0
.SolderPaste 0
T0 0.712567 -3.58829 1.64315 1.64315 0 0.05 N V 21 "SOT95P275X110-6N"
T1 1.75309 3.40454 1.64046 1.64046 0 0.05 N V 21 "VAL**"
DS -0.5588 1.5494 0.5588 1.5494 0.1524 21
DS 0.5588 -1.5494 0.3048 -1.5494 0.1524 21
DS 0.3048 -1.5494 -0.3048 -1.5494 0.1524 21
DS -0.3048 -1.5494 -0.5588 -1.5494 0.1524 21
DA 0 -1.5494 -0.3048 -1.5494 -1800 0.1524 21
DS -0.8382 1.5494 0.8382 1.5494 0 24
DS 0.8382 1.5494 0.8382 1.1938 0 24
DS 0.8382 1.1938 0.8382 0.7112 0 24
DS 0.8382 0.7112 0.8382 0.254 0 24
DS 0.8382 0.254 0.8382 -0.254 0 24
DS 0.8382 -0.254 0.8382 -0.7112 0 24
DS 0.8382 -1.5494 0.3048 -1.5494 0 24
DS 0.3048 -1.5494 -0.3048 -1.5494 0 24
DS -0.3048 -1.5494 -0.8382 -1.5494 0 24
DS -0.8382 -1.5494 -0.8382 -1.1938 0 24
DS -0.8382 -1.1938 -0.8382 -0.7112 0 24
DS -0.8382 -0.7112 -0.8382 -0.254 0 24
DS -0.8382 -0.254 -0.8382 0.254 0 24
DS -0.8382 0.254 -0.8382 0.7112 0 24
DS -0.8382 -1.1938 -1.4986 -1.1938 0 24
DS -1.4986 -1.1938 -1.4986 -0.7112 0 24
DS -1.4986 -0.7112 -0.8382 -0.7112 0 24
DS -0.8382 -0.254 -1.4986 -0.254 0 24
DS -1.4986 -0.254 -1.4986 0.254 0 24
DS -1.4986 0.254 -0.8382 0.254 0 24
DS -0.8382 1.5494 -0.8382 1.1938 0 24
DS -0.8382 1.1938 -0.8382 0.7112 0 24
DS -0.8382 0.7112 -1.4986 0.7112 0 24
DS -1.4986 0.7112 -1.4986 1.1938 0 24
DS -1.4986 1.1938 -0.8382 1.1938 0 24
DS 0.8382 1.1938 1.4986 1.1938 0 24
DS 1.4986 1.1938 1.4986 0.7112 0 24
DS 1.4986 0.7112 0.8382 0.7112 0 24
DS 0.8382 0.254 1.4986 0.254 0 24
DS 1.4986 0.254 1.4986 -0.254 0 24
DS 1.4986 -0.254 0.8382 -0.254 0 24
DS 0.8382 -1.5494 0.8382 -1.1938 0 24
DS 0.8382 -1.1938 0.8382 -0.7112 0 24
DS 0.8382 -0.7112 1.4986 -0.7112 0 24
DS 1.4986 -0.7112 1.4986 -1.1938 0 24
DS 1.4986 -1.1938 0.8382 -1.1938 0 24
DA 0 -1.5494 -0.3048 -1.5494 -1800 0 24
$PAD
Sh "1" R 1.3208 0.5588 0 0 0
At SMD N 00888000
.SolderMask 0
.SolderPaste 0
Ne 0 ""
Po -1.27 -0.9398
$EndPAD
$PAD
Sh "2" R 1.3208 0.5588 0 0 0
At SMD N 00888000
.SolderMask 0
.SolderPaste 0
Ne 0 ""
Po -1.27 0
$EndPAD
$PAD
Sh "3" R 1.3208 0.5588 0 0 0
At SMD N 00888000
.SolderMask 0
.SolderPaste 0
Ne 0 ""
Po -1.27 0.9398
$EndPAD
$PAD
Sh "4" R 1.3208 0.5588 0 0 0
At SMD N 00888000
.SolderMask 0
.SolderPaste 0
Ne 0 ""
Po 1.27 0.9398
$EndPAD
$PAD
Sh "5" R 1.3208 0.5588 0 0 0
At SMD N 00888000
.SolderMask 0
.SolderPaste 0
Ne 0 ""
Po 1.27 0
$EndPAD
$PAD
Sh "6" R 1.3208 0.5588 0 0 0
At SMD N 00888000
.SolderMask 0
.SolderPaste 0
Ne 0 ""
Po 1.27 -0.9398
$EndPAD
$EndMODULE SOT95P275X110-6N
