%TF.GenerationSoftware,KiCad,Pcbnew,4.0.7*%
%TF.CreationDate,2018-07-21T12:41:19-03:00*%
%TF.ProjectId,uQA3,755141332E6B696361645F7063620000,rev?*%
%TF.FileFunction,Profile,NP*%
%FSLAX46Y46*%
G04 Gerber Fmt 4.6, Leading zero omitted, Abs format (unit mm)*
G04 Created by KiCad (PCBNEW 4.0.7) date 07/21/18 12:41:19*
%MOMM*%
%LPD*%
G01*
G04 APERTURE LIST*
%ADD10C,0.150000*%
%ADD11C,0.200000*%
G04 APERTURE END LIST*
D10*
D11*
X131500000Y-133500000D02*
X132500000Y-132500000D01*
X124000000Y-126000000D02*
X131500000Y-133500000D01*
X126000000Y-124000000D02*
X124000000Y-126000000D01*
X133500000Y-131500000D02*
X126000000Y-124000000D01*
X132500000Y-132500000D02*
X133500000Y-131500000D01*
X86000000Y-126000000D02*
X84000000Y-124000000D01*
X78500000Y-133500000D02*
X86000000Y-126000000D01*
X77500000Y-132500000D02*
X78500000Y-133500000D01*
X76500000Y-131500000D02*
X77500000Y-132500000D01*
X84000000Y-124000000D02*
X76500000Y-131500000D01*
X76500000Y-78500000D02*
X77500000Y-77500000D01*
X84000000Y-86000000D02*
X76500000Y-78500000D01*
X86000000Y-84000000D02*
X84000000Y-86000000D01*
X78500000Y-76500000D02*
X86000000Y-84000000D01*
X77500000Y-77500000D02*
X78500000Y-76500000D01*
X133500000Y-78500000D02*
X132500000Y-77500000D01*
X126000000Y-86000000D02*
X133500000Y-78500000D01*
X124000000Y-84000000D02*
X126000000Y-86000000D01*
X131500000Y-76500000D02*
X124000000Y-84000000D01*
X132500000Y-77500000D02*
X131500000Y-76500000D01*
X78800000Y-73800000D02*
X73800000Y-78800000D01*
X89300000Y-84300000D02*
X78800000Y-73800000D01*
X89600000Y-84600000D02*
X89300000Y-84300000D01*
X120500000Y-84600000D02*
X89600000Y-84600000D01*
X120600000Y-84500000D02*
X120500000Y-84600000D01*
X130900000Y-74200000D02*
X120600000Y-84500000D01*
X131400000Y-73700000D02*
X136300000Y-78600000D01*
X131400000Y-73700000D02*
X130900000Y-74200000D01*
X125400000Y-89500000D02*
X136300000Y-78600000D01*
X125400000Y-92200000D02*
X125400000Y-89500000D01*
X125400000Y-120500000D02*
X125400000Y-92200000D01*
X125500000Y-120600000D02*
X125400000Y-120500000D01*
X135400000Y-130500000D02*
X125500000Y-120600000D01*
X136100000Y-131200000D02*
X135400000Y-130500000D01*
X131100000Y-136200000D02*
X136100000Y-131200000D01*
X120700000Y-125800000D02*
X131100000Y-136200000D01*
X120300000Y-125400000D02*
X120700000Y-125800000D01*
X89800000Y-125400000D02*
X120300000Y-125400000D01*
X89700000Y-125500000D02*
X89800000Y-125400000D01*
X79800000Y-135400000D02*
X89700000Y-125500000D01*
X78900000Y-136300000D02*
X79800000Y-135400000D01*
X78800000Y-136200000D02*
X78900000Y-136300000D01*
X73900000Y-131300000D02*
X78800000Y-136200000D01*
X74000000Y-131200000D02*
X73900000Y-131300000D01*
X84300000Y-120900000D02*
X74000000Y-131200000D01*
X84600000Y-120600000D02*
X84300000Y-120900000D01*
X84600000Y-120400000D02*
X84600000Y-120600000D01*
X84600000Y-89600000D02*
X84600000Y-120400000D01*
X84600000Y-89600000D02*
X73800000Y-78800000D01*
M02*
