M48
;DRILL file {KiCad 4.0.7} date 07/21/18 12:41:25
;FORMAT={-:-/ absolute / inch / decimal}
FMAT,2
INCH,TZ
T1C0.020
T2C0.022
T3C0.030
T4C0.047
%
G90
G05
M72
T1
X3.5394Y-4.6032
X3.5669Y-3.3858
X3.5827Y-4.2795
X3.6417Y-4.0157
X3.6977Y-4.599
X3.7008Y-4.3268
X3.7008Y-4.3858
X3.7008Y-4.4488
X3.7053Y-4.8419
X3.7205Y-3.878
X3.748Y-3.9843
X3.8097Y-3.9843
X3.8241Y-3.3791
X3.8937Y-3.748
X3.8937Y-4.1142
X3.9528Y-4.1142
X3.9531Y-4.0575
X4.0157Y-3.6063
X4.2323Y-3.7677
X4.2362Y-4.0669
X4.2838Y-4.0924
X4.3189Y-3.7598
X4.3425Y-4.1024
X4.4051Y-3.65
X4.4265Y-4.1457
X4.4409Y-4.0157
X4.4921Y-3.5276
X4.563Y-4.3346
X4.563Y-4.3937
X4.5669Y-4.8583
X4.5787Y-4.4488
X4.5827Y-4.1004
X4.5864Y-4.1624
X4.5984Y-4.7992
X4.6024Y-4.2402
X4.687Y-4.4902
X4.689Y-4.3307
X4.7559Y-3.8937
X4.7717Y-4.2638
T3
X3.3978Y-3.4683
X3.4057Y-4.7994
X3.4685Y-3.3976
X3.4764Y-4.8701
X4.7953Y-4.8701
X4.7994Y-3.3978
X4.866Y-4.7994
X4.8701Y-3.4685
T4
X4.7795Y-3.7008
X4.7795Y-3.8008
T1
X3.3986Y-3.6654G85X3.4242Y-3.6654
G05
X3.3986Y-3.9409G85X3.4242Y-3.9409
G05
T2
X3.5177Y-3.6988G85X3.5177Y-3.7106
G05
X3.5177Y-3.8957G85X3.5177Y-3.9075
G05
T0
M30
