EESchema Schematic File Version 2
LIBS:power
LIBS:device
LIBS:transistors
LIBS:conn
LIBS:linear
LIBS:regul
LIBS:74xx
LIBS:cmos4000
LIBS:adc-dac
LIBS:memory
LIBS:xilinx
LIBS:microcontrollers
LIBS:dsp
LIBS:microchip
LIBS:analog_switches
LIBS:motorola
LIBS:texas
LIBS:intel
LIBS:audio
LIBS:interface
LIBS:digital-audio
LIBS:philips
LIBS:display
LIBS:cypress
LIBS:siliconi
LIBS:opto
LIBS:atmel
LIBS:contrib
LIBS:valves
LIBS:Adafruit BME280
LIBS:Adafruit VL53L0X
LIBS:Adafruit MicroUSB Lipo
LIBS:FXAS21002C+FXOS8700CQ
LIBS:symbols
LIBS:vdc
LIBS:lvdt_ld200
LIBS:ad598
LIBS:linear2
LIBS:ESP8266
LIBS:74xgxx
LIBS:ac-dc
LIBS:actel
LIBS:allegro
LIBS:Altera
LIBS:analog_devices
LIBS:battery_management
LIBS:bbd
LIBS:bosch
LIBS:brooktre
LIBS:cmos_ieee
LIBS:dc-dc
LIBS:diode
LIBS:elec-unifil
LIBS:ESD_Protection
LIBS:ftdi
LIBS:gennum
LIBS:graphic
LIBS:hc11
LIBS:ir
LIBS:Lattice
LIBS:leds
LIBS:logo
LIBS:maxim
LIBS:mechanical
LIBS:microchip_dspic33dsc
LIBS:microchip_pic10mcu
LIBS:microchip_pic12mcu
LIBS:microchip_pic16mcu
LIBS:microchip_pic18mcu
LIBS:microchip_pic24mcu
LIBS:microchip_pic32mcu
LIBS:modules
LIBS:motor_drivers
LIBS:motors
LIBS:msp430
LIBS:nordicsemi
LIBS:nxp
LIBS:nxp_armmcu
LIBS:onsemi
LIBS:Oscillators
LIBS:Power_Management
LIBS:powerint
LIBS:pspice
LIBS:references
LIBS:relays
LIBS:rfcom
LIBS:sensors
LIBS:silabs
LIBS:stm8
LIBS:stm32
LIBS:supertex
LIBS:switches
LIBS:transf
LIBS:triac_thyristor
LIBS:ttl_ieee
LIBS:video
LIBS:wiznet
LIBS:Worldsemi
LIBS:Xicor
LIBS:zetex
LIBS:Zilog
LIBS:stm32f401ret6
LIBS:Tag-Connect
LIBS:IR2110
LIBS:LM2596S-5.0
LIBS:sg3525
LIBS:ArduProMiniTKB
LIBS:Shield_WiFi-cache
EELAYER 25 0
EELAYER END
$Descr A4 11693 8268
encoding utf-8
Sheet 1 1
Title "Shield WiFi"
Date "2017-07-16"
Rev ""
Comp ""
Comment1 ""
Comment2 ""
Comment3 ""
Comment4 ""
$EndDescr
$Comp
L CONN_01X15 J2
U 1 1 596A09AA
P 3900 6300
F 0 "J2" H 3900 7100 50  0000 C CNN
F 1 "Hembra" V 4000 6300 50  0000 C CNN
F 2 "Socket_Strips:Socket_Strip_Straight_1x15_Pitch2.54mm" H 3900 6300 50  0001 C CNN
F 3 "" H 3900 6300 50  0001 C CNN
	1    3900 6300
	-1   0    0    -1  
$EndComp
$Comp
L CONN_01X15 J1
U 1 1 596A09D5
P 3400 6300
F 0 "J1" H 3400 7100 50  0000 C CNN
F 1 "Hembra" V 3500 6300 50  0000 C CNN
F 2 "Socket_Strips:Socket_Strip_Straight_1x15_Pitch2.54mm" H 3400 6300 50  0001 C CNN
F 3 "" H 3400 6300 50  0001 C CNN
	1    3400 6300
	1    0    0    -1  
$EndComp
Text GLabel 4250 5600 2    60   Output ~ 0
D0
Text GLabel 4250 5700 2    60   Output ~ 0
D1
Text GLabel 4250 5800 2    60   Output ~ 0
D2
Text GLabel 4250 5900 2    60   Output ~ 0
D3
Text GLabel 4250 6000 2    60   Output ~ 0
D4
Text GLabel 4250 6100 2    60   Output ~ 0
3V3
Text GLabel 4250 6200 2    60   Output ~ 0
GND
Text GLabel 4250 6300 2    60   Output ~ 0
D5
Text GLabel 4250 6400 2    60   Output ~ 0
D6
Text GLabel 4250 6500 2    60   Output ~ 0
D7
Text GLabel 4250 6600 2    60   Output ~ 0
D8
Text GLabel 4250 6700 2    60   Output ~ 0
D9
Text GLabel 4250 6800 2    60   Output ~ 0
D10
Text GLabel 4250 6900 2    60   Output ~ 0
GND
Text GLabel 4250 7000 2    60   Output ~ 0
3V3
Text GLabel 3050 5600 0    60   Output ~ 0
A0
Text GLabel 3050 5700 0    60   Output ~ 0
RSV0
Text GLabel 3050 5800 0    60   Output ~ 0
RSV1
Text GLabel 3050 5900 0    60   Output ~ 0
SD3
Text GLabel 3050 6000 0    60   Output ~ 0
SD2
Text GLabel 3050 6100 0    60   Output ~ 0
SD1
Text GLabel 3050 6200 0    60   Output ~ 0
CMD
Text GLabel 3050 6300 0    60   Output ~ 0
SD0
Text GLabel 3050 6400 0    60   Output ~ 0
CLK
Text GLabel 3050 6500 0    60   Output ~ 0
GND
Text GLabel 3050 7000 0    60   Output ~ 0
5Vin
Text GLabel 3050 6900 0    60   Output ~ 0
GND
Text GLabel 3050 6800 0    60   Output ~ 0
RST
Text GLabel 3050 6700 0    60   Output ~ 0
EN
Text GLabel 3050 6600 0    60   Output ~ 0
3V3
Wire Wire Line
	4100 5600 4250 5600
Wire Wire Line
	4250 5700 4100 5700
Wire Wire Line
	4100 5800 4250 5800
Wire Wire Line
	4250 5900 4100 5900
Wire Wire Line
	4100 6000 4250 6000
Wire Wire Line
	4250 6100 4100 6100
Wire Wire Line
	4100 6200 4250 6200
Wire Wire Line
	4250 6300 4100 6300
Wire Wire Line
	4100 6400 4250 6400
Wire Wire Line
	4250 6500 4100 6500
Wire Wire Line
	4100 6600 4250 6600
Wire Wire Line
	4100 6700 4250 6700
Wire Wire Line
	4250 6800 4100 6800
Wire Wire Line
	4100 6900 4250 6900
Wire Wire Line
	4250 7000 4100 7000
Wire Wire Line
	3200 7000 3050 7000
Wire Wire Line
	3050 6900 3200 6900
Wire Wire Line
	3200 6800 3050 6800
Wire Wire Line
	3050 6700 3200 6700
Wire Wire Line
	3200 6600 3050 6600
Wire Wire Line
	3050 6500 3200 6500
Wire Wire Line
	3200 6400 3050 6400
Wire Wire Line
	3050 6300 3200 6300
Wire Wire Line
	3200 6200 3050 6200
Wire Wire Line
	3050 6100 3200 6100
Wire Wire Line
	3200 6000 3050 6000
Wire Wire Line
	3050 5900 3200 5900
Wire Wire Line
	3200 5800 3050 5800
Wire Wire Line
	3050 5700 3200 5700
Wire Wire Line
	3200 5600 3050 5600
$Comp
L Q_NMOS_GSD Q3
U 1 1 596BEE6B
P 4750 2200
F 0 "Q3" H 4950 2250 50  0000 L CNN
F 1 "Si2302" H 4950 2150 50  0000 L CNN
F 2 "TO_SOT_Packages_SMD:SOT-23" H 4950 2300 50  0001 C CNN
F 3 "" H 4750 2200 50  0001 C CNN
	1    4750 2200
	1    0    0    -1  
$EndComp
$Comp
L R R5
U 1 1 596BEEA4
P 4100 2200
F 0 "R5" V 4180 2200 50  0000 C CNN
F 1 "100" V 4100 2200 50  0000 C CNN
F 2 "Resistors_ThroughHole:R_Axial_DIN0207_L6.3mm_D2.5mm_P10.16mm_Horizontal" V 4030 2200 50  0001 C CNN
F 3 "" H 4100 2200 50  0001 C CNN
	1    4100 2200
	0    1    1    0   
$EndComp
$Comp
L R R7
U 1 1 596BEF1B
P 4400 2450
F 0 "R7" V 4480 2450 50  0000 C CNN
F 1 "10K" V 4400 2450 50  0000 C CNN
F 2 "Resistors_ThroughHole:R_Axial_DIN0207_L6.3mm_D2.5mm_P10.16mm_Horizontal" V 4330 2450 50  0001 C CNN
F 3 "" H 4400 2450 50  0001 C CNN
	1    4400 2450
	-1   0    0    1   
$EndComp
$Comp
L D D3
U 1 1 596BEFB5
P 5300 1550
F 0 "D3" H 5300 1650 50  0000 C CNN
F 1 "1N4148" H 5300 1450 50  0000 C CNN
F 2 "Diodes_ThroughHole:D_DO-41_SOD81_P10.16mm_Horizontal" H 5300 1550 50  0001 C CNN
F 3 "" H 5300 1550 50  0001 C CNN
	1    5300 1550
	0    1    1    0   
$EndComp
$Comp
L Motor_DC M3
U 1 1 596BF070
P 4850 1500
F 0 "M3" H 4950 1600 50  0000 L CNN
F 1 "CW" H 4950 1300 50  0000 L TNN
F 2 "Pin_Headers:Pin_Header_Straight_1x02_Pitch2.54mm" H 4850 1410 50  0001 C CNN
F 3 "" H 4850 1410 50  0001 C CNN
	1    4850 1500
	1    0    0    -1  
$EndComp
Wire Wire Line
	4850 2000 4850 1800
Connection ~ 4850 1900
Wire Wire Line
	4850 1100 4850 1300
Wire Wire Line
	5300 1400 5300 1200
Wire Wire Line
	5300 1200 4850 1200
Wire Wire Line
	5300 1700 5300 1900
Wire Wire Line
	5300 1900 4850 1900
Wire Wire Line
	4400 2300 4400 2200
Wire Wire Line
	4250 2200 4550 2200
Connection ~ 4400 2200
$Comp
L Earth #PWR01
U 1 1 596BF30A
P 4400 2700
F 0 "#PWR01" H 4400 2450 50  0001 C CNN
F 1 "Earth" H 4400 2550 50  0001 C CNN
F 2 "" H 4400 2700 50  0001 C CNN
F 3 "" H 4400 2700 50  0001 C CNN
	1    4400 2700
	1    0    0    -1  
$EndComp
Wire Wire Line
	4400 2700 4400 2600
$Comp
L Earth #PWR02
U 1 1 596BF39A
P 4850 2700
F 0 "#PWR02" H 4850 2450 50  0001 C CNN
F 1 "Earth" H 4850 2550 50  0001 C CNN
F 2 "" H 4850 2700 50  0001 C CNN
F 3 "" H 4850 2700 50  0001 C CNN
	1    4850 2700
	1    0    0    -1  
$EndComp
Wire Wire Line
	4850 2400 4850 2700
Text GLabel 3800 2200 0    60   Input ~ 0
D3
Wire Wire Line
	3950 2200 3800 2200
$Comp
L +BATT #PWR03
U 1 1 596BF63C
P 4850 1100
F 0 "#PWR03" H 4850 950 50  0001 C CNN
F 1 "+BATT" H 4850 1240 50  0000 C CNN
F 2 "" H 4850 1100 50  0001 C CNN
F 3 "" H 4850 1100 50  0001 C CNN
	1    4850 1100
	1    0    0    -1  
$EndComp
Connection ~ 4850 1200
$Comp
L Q_NMOS_GSD Q4
U 1 1 596BF9ED
P 4750 4200
F 0 "Q4" H 4950 4250 50  0000 L CNN
F 1 "Si2302" H 4950 4150 50  0000 L CNN
F 2 "TO_SOT_Packages_SMD:SOT-23" H 4950 4300 50  0001 C CNN
F 3 "" H 4750 4200 50  0001 C CNN
	1    4750 4200
	1    0    0    -1  
$EndComp
$Comp
L R R6
U 1 1 596BF9F3
P 4100 4200
F 0 "R6" V 4180 4200 50  0000 C CNN
F 1 "100" V 4100 4200 50  0000 C CNN
F 2 "Resistors_ThroughHole:R_Axial_DIN0207_L6.3mm_D2.5mm_P10.16mm_Horizontal" V 4030 4200 50  0001 C CNN
F 3 "" H 4100 4200 50  0001 C CNN
	1    4100 4200
	0    1    1    0   
$EndComp
$Comp
L R R8
U 1 1 596BF9F9
P 4400 4450
F 0 "R8" V 4480 4450 50  0000 C CNN
F 1 "10K" V 4400 4450 50  0000 C CNN
F 2 "Resistors_ThroughHole:R_Axial_DIN0207_L6.3mm_D2.5mm_P10.16mm_Horizontal" V 4330 4450 50  0001 C CNN
F 3 "" H 4400 4450 50  0001 C CNN
	1    4400 4450
	-1   0    0    1   
$EndComp
$Comp
L D D4
U 1 1 596BF9FF
P 5300 3550
F 0 "D4" H 5300 3650 50  0000 C CNN
F 1 "1N4148" H 5300 3450 50  0000 C CNN
F 2 "Diodes_ThroughHole:D_DO-41_SOD81_P10.16mm_Horizontal" H 5300 3550 50  0001 C CNN
F 3 "" H 5300 3550 50  0001 C CNN
	1    5300 3550
	0    1    1    0   
$EndComp
$Comp
L Motor_DC M4
U 1 1 596BFA05
P 4850 3500
F 0 "M4" H 4950 3600 50  0000 L CNN
F 1 "CCW" H 4950 3300 50  0000 L TNN
F 2 "Pin_Headers:Pin_Header_Straight_1x02_Pitch2.54mm" H 4850 3410 50  0001 C CNN
F 3 "" H 4850 3410 50  0001 C CNN
	1    4850 3500
	1    0    0    -1  
$EndComp
Wire Wire Line
	4850 4000 4850 3800
Connection ~ 4850 3900
Wire Wire Line
	4850 3100 4850 3300
Wire Wire Line
	5300 3400 5300 3200
Wire Wire Line
	5300 3200 4850 3200
Wire Wire Line
	5300 3700 5300 3900
Wire Wire Line
	5300 3900 4850 3900
Wire Wire Line
	4400 4300 4400 4200
Wire Wire Line
	4250 4200 4550 4200
Connection ~ 4400 4200
$Comp
L Earth #PWR04
U 1 1 596BFA15
P 4400 4700
F 0 "#PWR04" H 4400 4450 50  0001 C CNN
F 1 "Earth" H 4400 4550 50  0001 C CNN
F 2 "" H 4400 4700 50  0001 C CNN
F 3 "" H 4400 4700 50  0001 C CNN
	1    4400 4700
	1    0    0    -1  
$EndComp
Wire Wire Line
	4400 4700 4400 4600
$Comp
L Earth #PWR05
U 1 1 596BFA1C
P 4850 4700
F 0 "#PWR05" H 4850 4450 50  0001 C CNN
F 1 "Earth" H 4850 4550 50  0001 C CNN
F 2 "" H 4850 4700 50  0001 C CNN
F 3 "" H 4850 4700 50  0001 C CNN
	1    4850 4700
	1    0    0    -1  
$EndComp
Wire Wire Line
	4850 4400 4850 4700
Text GLabel 3800 4200 0    60   Input ~ 0
D6
Wire Wire Line
	3950 4200 3800 4200
$Comp
L +BATT #PWR06
U 1 1 596BFA25
P 4850 3100
F 0 "#PWR06" H 4850 2950 50  0001 C CNN
F 1 "+BATT" H 4850 3240 50  0000 C CNN
F 2 "" H 4850 3100 50  0001 C CNN
F 3 "" H 4850 3100 50  0001 C CNN
	1    4850 3100
	1    0    0    -1  
$EndComp
Connection ~ 4850 3200
$Comp
L Q_NMOS_GSD Q1
U 1 1 596BFC3A
P 2700 2200
F 0 "Q1" H 2900 2250 50  0000 L CNN
F 1 "Si2302" H 2900 2150 50  0000 L CNN
F 2 "TO_SOT_Packages_SMD:SOT-23" H 2900 2300 50  0001 C CNN
F 3 "" H 2700 2200 50  0001 C CNN
	1    2700 2200
	1    0    0    -1  
$EndComp
$Comp
L R R1
U 1 1 596BFC40
P 2050 2200
F 0 "R1" V 2130 2200 50  0000 C CNN
F 1 "100" V 2050 2200 50  0000 C CNN
F 2 "Resistors_ThroughHole:R_Axial_DIN0207_L6.3mm_D2.5mm_P10.16mm_Horizontal" V 1980 2200 50  0001 C CNN
F 3 "" H 2050 2200 50  0001 C CNN
	1    2050 2200
	0    1    1    0   
$EndComp
$Comp
L R R3
U 1 1 596BFC46
P 2350 2450
F 0 "R3" V 2430 2450 50  0000 C CNN
F 1 "10K" V 2350 2450 50  0000 C CNN
F 2 "Resistors_ThroughHole:R_Axial_DIN0207_L6.3mm_D2.5mm_P10.16mm_Horizontal" V 2280 2450 50  0001 C CNN
F 3 "" H 2350 2450 50  0001 C CNN
	1    2350 2450
	-1   0    0    1   
$EndComp
$Comp
L D D1
U 1 1 596BFC4C
P 3250 1550
F 0 "D1" H 3250 1650 50  0000 C CNN
F 1 "1N4148" H 3250 1450 50  0000 C CNN
F 2 "Diodes_ThroughHole:D_DO-41_SOD81_P10.16mm_Horizontal" H 3250 1550 50  0001 C CNN
F 3 "" H 3250 1550 50  0001 C CNN
	1    3250 1550
	0    1    1    0   
$EndComp
$Comp
L Motor_DC M1
U 1 1 596BFC52
P 2800 1500
F 0 "M1" H 2900 1600 50  0000 L CNN
F 1 "CW" H 2900 1300 50  0000 L TNN
F 2 "Pin_Headers:Pin_Header_Straight_1x02_Pitch2.54mm" H 2800 1410 50  0001 C CNN
F 3 "" H 2800 1410 50  0001 C CNN
	1    2800 1500
	1    0    0    -1  
$EndComp
Wire Wire Line
	2800 2000 2800 1800
Connection ~ 2800 1900
Wire Wire Line
	2800 1100 2800 1300
Wire Wire Line
	3250 1400 3250 1200
Wire Wire Line
	3250 1200 2800 1200
Wire Wire Line
	3250 1700 3250 1900
Wire Wire Line
	3250 1900 2800 1900
Wire Wire Line
	2350 2300 2350 2200
Wire Wire Line
	2200 2200 2500 2200
Connection ~ 2350 2200
$Comp
L Earth #PWR07
U 1 1 596BFC62
P 2350 2700
F 0 "#PWR07" H 2350 2450 50  0001 C CNN
F 1 "Earth" H 2350 2550 50  0001 C CNN
F 2 "" H 2350 2700 50  0001 C CNN
F 3 "" H 2350 2700 50  0001 C CNN
	1    2350 2700
	1    0    0    -1  
$EndComp
Wire Wire Line
	2350 2700 2350 2600
$Comp
L Earth #PWR08
U 1 1 596BFC69
P 2800 2700
F 0 "#PWR08" H 2800 2450 50  0001 C CNN
F 1 "Earth" H 2800 2550 50  0001 C CNN
F 2 "" H 2800 2700 50  0001 C CNN
F 3 "" H 2800 2700 50  0001 C CNN
	1    2800 2700
	1    0    0    -1  
$EndComp
Wire Wire Line
	2800 2400 2800 2700
Text GLabel 1750 2200 0    60   Input ~ 0
D2
Wire Wire Line
	1900 2200 1750 2200
$Comp
L +BATT #PWR09
U 1 1 596BFC72
P 2800 1100
F 0 "#PWR09" H 2800 950 50  0001 C CNN
F 1 "+BATT" H 2800 1240 50  0000 C CNN
F 2 "" H 2800 1100 50  0001 C CNN
F 3 "" H 2800 1100 50  0001 C CNN
	1    2800 1100
	1    0    0    -1  
$EndComp
Connection ~ 2800 1200
$Comp
L Q_NMOS_GSD Q2
U 1 1 596BFC79
P 2700 4200
F 0 "Q2" H 2900 4250 50  0000 L CNN
F 1 "Si2302" H 2900 4150 50  0000 L CNN
F 2 "TO_SOT_Packages_SMD:SOT-23" H 2900 4300 50  0001 C CNN
F 3 "" H 2700 4200 50  0001 C CNN
	1    2700 4200
	1    0    0    -1  
$EndComp
$Comp
L R R2
U 1 1 596BFC7F
P 2050 4200
F 0 "R2" V 2130 4200 50  0000 C CNN
F 1 "100" V 2050 4200 50  0000 C CNN
F 2 "Resistors_ThroughHole:R_Axial_DIN0207_L6.3mm_D2.5mm_P10.16mm_Horizontal" V 1980 4200 50  0001 C CNN
F 3 "" H 2050 4200 50  0001 C CNN
	1    2050 4200
	0    1    1    0   
$EndComp
$Comp
L R R4
U 1 1 596BFC85
P 2350 4450
F 0 "R4" V 2430 4450 50  0000 C CNN
F 1 "10K" V 2350 4450 50  0000 C CNN
F 2 "Resistors_ThroughHole:R_Axial_DIN0207_L6.3mm_D2.5mm_P10.16mm_Horizontal" V 2280 4450 50  0001 C CNN
F 3 "" H 2350 4450 50  0001 C CNN
	1    2350 4450
	-1   0    0    1   
$EndComp
$Comp
L D D2
U 1 1 596BFC8B
P 3250 3550
F 0 "D2" H 3250 3650 50  0000 C CNN
F 1 "1N4148" H 3250 3450 50  0000 C CNN
F 2 "Diodes_ThroughHole:D_DO-41_SOD81_P10.16mm_Horizontal" H 3250 3550 50  0001 C CNN
F 3 "" H 3250 3550 50  0001 C CNN
	1    3250 3550
	0    1    1    0   
$EndComp
$Comp
L Motor_DC M2
U 1 1 596BFC91
P 2800 3500
F 0 "M2" H 2900 3600 50  0000 L CNN
F 1 "CCW" H 2900 3300 50  0000 L TNN
F 2 "Pin_Headers:Pin_Header_Straight_1x02_Pitch2.54mm" H 2800 3410 50  0001 C CNN
F 3 "" H 2800 3410 50  0001 C CNN
	1    2800 3500
	1    0    0    -1  
$EndComp
Wire Wire Line
	2800 4000 2800 3800
Connection ~ 2800 3900
Wire Wire Line
	2800 3100 2800 3300
Wire Wire Line
	3250 3400 3250 3200
Wire Wire Line
	3250 3200 2800 3200
Wire Wire Line
	3250 3700 3250 3900
Wire Wire Line
	3250 3900 2800 3900
Wire Wire Line
	2350 4300 2350 4200
Wire Wire Line
	2200 4200 2500 4200
Connection ~ 2350 4200
$Comp
L Earth #PWR010
U 1 1 596BFCA1
P 2350 4700
F 0 "#PWR010" H 2350 4450 50  0001 C CNN
F 1 "Earth" H 2350 4550 50  0001 C CNN
F 2 "" H 2350 4700 50  0001 C CNN
F 3 "" H 2350 4700 50  0001 C CNN
	1    2350 4700
	1    0    0    -1  
$EndComp
Wire Wire Line
	2350 4700 2350 4600
$Comp
L Earth #PWR011
U 1 1 596BFCA8
P 2800 4700
F 0 "#PWR011" H 2800 4450 50  0001 C CNN
F 1 "Earth" H 2800 4550 50  0001 C CNN
F 2 "" H 2800 4700 50  0001 C CNN
F 3 "" H 2800 4700 50  0001 C CNN
	1    2800 4700
	1    0    0    -1  
$EndComp
Wire Wire Line
	2800 4400 2800 4700
Text GLabel 1750 4200 0    60   Input ~ 0
D5
Wire Wire Line
	1900 4200 1750 4200
$Comp
L +BATT #PWR012
U 1 1 596BFCB1
P 2800 3100
F 0 "#PWR012" H 2800 2950 50  0001 C CNN
F 1 "+BATT" H 2800 3240 50  0000 C CNN
F 2 "" H 2800 3100 50  0001 C CNN
F 3 "" H 2800 3100 50  0001 C CNN
	1    2800 3100
	1    0    0    -1  
$EndComp
Connection ~ 2800 3200
$Comp
L CONN_01X02 J3
U 1 1 596C2F01
P 7650 1550
F 0 "J3" H 7650 1700 50  0000 C CNN
F 1 "Bateria" V 7750 1550 50  0000 C CNN
F 2 "Connectors_Molex:Molex_MicroLatch-53254-0270_02x2.00mm_Angled" H 7650 1550 50  0001 C CNN
F 3 "" H 7650 1550 50  0001 C CNN
	1    7650 1550
	-1   0    0    1   
$EndComp
$Comp
L Earth #PWR013
U 1 1 596C34D8
P 8000 1700
F 0 "#PWR013" H 8000 1450 50  0001 C CNN
F 1 "Earth" H 8000 1550 50  0001 C CNN
F 2 "" H 8000 1700 50  0001 C CNN
F 3 "" H 8000 1700 50  0001 C CNN
	1    8000 1700
	1    0    0    -1  
$EndComp
Wire Wire Line
	8000 1600 8000 1700
$Comp
L +BATT #PWR014
U 1 1 596C483B
P 8000 1400
F 0 "#PWR014" H 8000 1250 50  0001 C CNN
F 1 "+BATT" H 8000 1540 50  0000 C CNN
F 2 "" H 8000 1400 50  0001 C CNN
F 3 "" H 8000 1400 50  0001 C CNN
	1    8000 1400
	1    0    0    -1  
$EndComp
Wire Wire Line
	7850 1500 8000 1500
Wire Wire Line
	8000 1500 8000 1400
$Comp
L R R9
U 1 1 596C55CA
P 8700 1500
F 0 "R9" V 8780 1500 50  0000 C CNN
F 1 "1ohm - 0.5W" V 8600 1500 50  0000 C CNN
F 2 "Resistors_ThroughHole:R_Axial_DIN0207_L6.3mm_D2.5mm_P10.16mm_Horizontal" V 8630 1500 50  0001 C CNN
F 3 "" H 8700 1500 50  0001 C CNN
	1    8700 1500
	0    1    1    0   
$EndComp
$Comp
L +BATT #PWR015
U 1 1 596C5AC3
P 8350 1400
F 0 "#PWR015" H 8350 1250 50  0001 C CNN
F 1 "+BATT" H 8350 1540 50  0000 C CNN
F 2 "" H 8350 1400 50  0001 C CNN
F 3 "" H 8350 1400 50  0001 C CNN
	1    8350 1400
	1    0    0    -1  
$EndComp
Wire Wire Line
	8350 1500 8350 1400
$Comp
L D_Zener D5
U 1 1 596C60AE
P 9450 1750
F 0 "D5" H 9450 1850 50  0000 C CNN
F 1 "1N4728" H 9450 1650 50  0000 C CNN
F 2 "Diodes_ThroughHole:D_DO-41_SOD81_P10.16mm_Horizontal" H 9450 1750 50  0001 C CNN
F 3 "" H 9450 1750 50  0001 C CNN
	1    9450 1750
	0    1    1    0   
$EndComp
Wire Wire Line
	9450 1600 9450 1500
Wire Wire Line
	9250 1500 9700 1500
$Comp
L Earth #PWR016
U 1 1 596C661C
P 9450 2050
F 0 "#PWR016" H 9450 1800 50  0001 C CNN
F 1 "Earth" H 9450 1900 50  0001 C CNN
F 2 "" H 9450 2050 50  0001 C CNN
F 3 "" H 9450 2050 50  0001 C CNN
	1    9450 2050
	1    0    0    -1  
$EndComp
Wire Wire Line
	9450 2050 9450 1900
$Comp
L 3.3V #M017
U 1 1 596C6B28
P 9700 1350
F 0 "#M017" H 9700 1350 45  0001 L BNN
F 1 "3.3V" H 9640 1390 45  0000 L BNN
F 2 "" H 9700 1350 60  0001 C CNN
F 3 "" H 9700 1350 60  0001 C CNN
	1    9700 1350
	1    0    0    -1  
$EndComp
Wire Wire Line
	9700 1500 9700 1450
Connection ~ 9450 1500
Wire Wire Line
	8000 1600 7850 1600
$Comp
L 3.3V #M018
U 1 1 596C74BE
P 7900 1900
F 0 "#M018" H 7900 1900 45  0001 L BNN
F 1 "3.3V" H 7840 1940 45  0000 L BNN
F 2 "" H 7900 1900 60  0001 C CNN
F 3 "" H 7900 1900 60  0001 C CNN
	1    7900 1900
	1    0    0    -1  
$EndComp
$Comp
L Earth #PWR019
U 1 1 596C7514
P 8200 2100
F 0 "#PWR019" H 8200 1850 50  0001 C CNN
F 1 "Earth" H 8200 1950 50  0001 C CNN
F 2 "" H 8200 2100 50  0001 C CNN
F 3 "" H 8200 2100 50  0001 C CNN
	1    8200 2100
	1    0    0    -1  
$EndComp
Text GLabel 8400 1950 2    60   Input ~ 0
GND
Text GLabel 7850 2150 0    60   Input ~ 0
3V3
Wire Wire Line
	7850 2150 7900 2150
Wire Wire Line
	7900 2150 7900 2000
Wire Wire Line
	8200 2100 8200 1950
Wire Wire Line
	8200 1950 8400 1950
Wire Notes Line
	550  550  550  7700
Wire Notes Line
	550  7700 6950 7700
Wire Notes Line
	6950 7700 6950 550 
Wire Notes Line
	6950 550  550  550 
Wire Notes Line
	7100 6000 11150 6000
Wire Notes Line
	11150 6000 11150 550 
Wire Notes Line
	11150 550  7100 550 
Wire Notes Line
	7100 550  7100 6000
$Comp
L 1N4007 D6
U 1 1 596F8CA4
P 10350 1500
F 0 "D6" H 10350 1600 50  0000 C CNN
F 1 "1N4007" H 10350 1400 50  0000 C CNN
F 2 "Diodes_ThroughHole:D_DO-41_SOD81_P10.16mm_Horizontal" H 10350 1325 50  0001 C CNN
F 3 "" H 10350 1500 50  0001 C CNN
	1    10350 1500
	-1   0    0    1   
$EndComp
$Comp
L 3.3V #M020
U 1 1 596F8DC6
P 10650 1300
F 0 "#M020" H 10650 1300 45  0001 L BNN
F 1 "3.3V" H 10590 1340 45  0000 L BNN
F 2 "" H 10650 1300 60  0001 C CNN
F 3 "" H 10650 1300 60  0001 C CNN
	1    10650 1300
	1    0    0    -1  
$EndComp
$Comp
L +BATT #PWR021
U 1 1 596F8E77
P 10000 1400
F 0 "#PWR021" H 10000 1250 50  0001 C CNN
F 1 "+BATT" H 10000 1540 50  0000 C CNN
F 2 "" H 10000 1400 50  0001 C CNN
F 3 "" H 10000 1400 50  0001 C CNN
	1    10000 1400
	1    0    0    -1  
$EndComp
Wire Wire Line
	10500 1500 10650 1500
Wire Wire Line
	10650 1500 10650 1400
Wire Wire Line
	10200 1500 10000 1500
Wire Wire Line
	10000 1500 10000 1400
$Comp
L R R10
U 1 1 596FB4D2
P 9100 1500
F 0 "R10" V 9180 1500 50  0000 C CNN
F 1 "1ohm - 0.5W" V 9250 1400 50  0000 C CNN
F 2 "Resistors_ThroughHole:R_Axial_DIN0207_L6.3mm_D2.5mm_P10.16mm_Horizontal" V 9030 1500 50  0001 C CNN
F 3 "" H 9100 1500 50  0001 C CNN
	1    9100 1500
	0    1    1    0   
$EndComp
Wire Wire Line
	8950 1500 8850 1500
Wire Wire Line
	8550 1500 8350 1500
$Comp
L CONN_01X15 J5
U 1 1 596FA5CD
P 8500 4350
F 0 "J5" H 8500 5150 50  0000 C CNN
F 1 "Macho" V 8600 4350 50  0000 C CNN
F 2 "Pin_Headers:Pin_Header_Straight_1x15_Pitch2.54mm" H 8500 4350 50  0001 C CNN
F 3 "" H 8500 4350 50  0001 C CNN
	1    8500 4350
	-1   0    0    -1  
$EndComp
$Comp
L CONN_01X15 J4
U 1 1 596FA5D3
P 8000 4350
F 0 "J4" H 8000 5150 50  0000 C CNN
F 1 "Macho" V 8100 4350 50  0000 C CNN
F 2 "Pin_Headers:Pin_Header_Straight_1x15_Pitch2.54mm" H 8000 4350 50  0001 C CNN
F 3 "" H 8000 4350 50  0001 C CNN
	1    8000 4350
	1    0    0    -1  
$EndComp
Text GLabel 8850 3650 2    60   Output ~ 0
D0
Text GLabel 8850 3750 2    60   Output ~ 0
D1
Text GLabel 8850 3850 2    60   Output ~ 0
D2
Text GLabel 8850 3950 2    60   Output ~ 0
D3
Text GLabel 8850 4050 2    60   Output ~ 0
D4
Text GLabel 8850 4150 2    60   Output ~ 0
3V3
Text GLabel 8850 4250 2    60   Output ~ 0
GND
Text GLabel 8850 4350 2    60   Output ~ 0
D5
Text GLabel 8850 4450 2    60   Output ~ 0
D6
Text GLabel 8850 4550 2    60   Output ~ 0
D7
Text GLabel 8850 4650 2    60   Output ~ 0
D8
Text GLabel 8850 4750 2    60   Output ~ 0
D9
Text GLabel 8850 4850 2    60   Output ~ 0
D10
Text GLabel 8850 4950 2    60   Output ~ 0
GND
Text GLabel 8850 5050 2    60   Output ~ 0
3V3
Text GLabel 7650 3650 0    60   Output ~ 0
A0
Text GLabel 7650 3750 0    60   Output ~ 0
RSV0
Text GLabel 7650 3850 0    60   Output ~ 0
RSV1
Text GLabel 7650 3950 0    60   Output ~ 0
SD3
Text GLabel 7650 4050 0    60   Output ~ 0
SD2
Text GLabel 7650 4150 0    60   Output ~ 0
SD1
Text GLabel 7650 4250 0    60   Output ~ 0
CMD
Text GLabel 7650 4350 0    60   Output ~ 0
SD0
Text GLabel 7650 4450 0    60   Output ~ 0
CLK
Text GLabel 7650 4550 0    60   Output ~ 0
GND
Text GLabel 7650 5050 0    60   Output ~ 0
5Vin
Text GLabel 7650 4950 0    60   Output ~ 0
GND
Text GLabel 7650 4850 0    60   Output ~ 0
RST
Text GLabel 7650 4750 0    60   Output ~ 0
EN
Text GLabel 7650 4650 0    60   Output ~ 0
3V3
Wire Wire Line
	8700 3650 8850 3650
Wire Wire Line
	8850 3750 8700 3750
Wire Wire Line
	8700 3850 8850 3850
Wire Wire Line
	8850 3950 8700 3950
Wire Wire Line
	8700 4050 8850 4050
Wire Wire Line
	8850 4150 8700 4150
Wire Wire Line
	8700 4250 8850 4250
Wire Wire Line
	8850 4350 8700 4350
Wire Wire Line
	8700 4450 8850 4450
Wire Wire Line
	8850 4550 8700 4550
Wire Wire Line
	8700 4650 8850 4650
Wire Wire Line
	8700 4750 8850 4750
Wire Wire Line
	8850 4850 8700 4850
Wire Wire Line
	8700 4950 8850 4950
Wire Wire Line
	8850 5050 8700 5050
Wire Wire Line
	7800 5050 7650 5050
Wire Wire Line
	7650 4950 7800 4950
Wire Wire Line
	7800 4850 7650 4850
Wire Wire Line
	7650 4750 7800 4750
Wire Wire Line
	7800 4650 7650 4650
Wire Wire Line
	7650 4550 7800 4550
Wire Wire Line
	7800 4450 7650 4450
Wire Wire Line
	7650 4350 7800 4350
Wire Wire Line
	7800 4250 7650 4250
Wire Wire Line
	7650 4150 7800 4150
Wire Wire Line
	7800 4050 7650 4050
Wire Wire Line
	7650 3950 7800 3950
Wire Wire Line
	7800 3850 7650 3850
Wire Wire Line
	7650 3750 7800 3750
Wire Wire Line
	7800 3650 7650 3650
$Comp
L LED D8
U 1 1 596FE02A
P 9900 4650
F 0 "D8" H 9900 4750 50  0000 C CNN
F 1 "LED_ROJO" H 9900 4500 50  0000 C CNN
F 2 "LEDs:LED_D5.0mm" H 9900 4650 50  0001 C CNN
F 3 "" H 9900 4650 50  0001 C CNN
	1    9900 4650
	0    -1   -1   0   
$EndComp
$Comp
L LED D9
U 1 1 596FE233
P 10250 4650
F 0 "D9" H 10250 4750 50  0000 C CNN
F 1 "LED_AZUL" H 10250 4500 50  0000 C CNN
F 2 "LEDs:LED_D5.0mm" H 10250 4650 50  0001 C CNN
F 3 "" H 10250 4650 50  0001 C CNN
	1    10250 4650
	0    -1   -1   0   
$EndComp
$Comp
L LED D10
U 1 1 596FE2A6
P 10600 4650
F 0 "D10" H 10600 4750 50  0000 C CNN
F 1 "LED_AZUL" H 10600 4500 50  0000 C CNN
F 2 "LEDs:LED_D5.0mm" H 10600 4650 50  0001 C CNN
F 3 "" H 10600 4650 50  0001 C CNN
	1    10600 4650
	0    -1   -1   0   
$EndComp
$Comp
L LED D7
U 1 1 596FE31E
P 9550 4650
F 0 "D7" H 9550 4750 50  0000 C CNN
F 1 "LED_ROJO" H 9550 4500 50  0000 C CNN
F 2 "LEDs:LED_D5.0mm" H 9550 4650 50  0001 C CNN
F 3 "" H 9550 4650 50  0001 C CNN
	1    9550 4650
	0    -1   -1   0   
$EndComp
$Comp
L R R11
U 1 1 596FF1B2
P 9550 4250
F 0 "R11" V 9630 4250 50  0000 C CNN
F 1 "330" V 9550 4250 50  0000 C CNN
F 2 "Resistors_ThroughHole:R_Axial_DIN0207_L6.3mm_D2.5mm_P10.16mm_Horizontal" V 9480 4250 50  0001 C CNN
F 3 "" H 9550 4250 50  0001 C CNN
	1    9550 4250
	1    0    0    -1  
$EndComp
$Comp
L R R12
U 1 1 596FF2FB
P 9900 4250
F 0 "R12" V 9980 4250 50  0000 C CNN
F 1 "330" V 9900 4250 50  0000 C CNN
F 2 "Resistors_ThroughHole:R_Axial_DIN0207_L6.3mm_D2.5mm_P10.16mm_Horizontal" V 9830 4250 50  0001 C CNN
F 3 "" H 9900 4250 50  0001 C CNN
	1    9900 4250
	1    0    0    -1  
$EndComp
$Comp
L R R13
U 1 1 596FF37C
P 10250 4250
F 0 "R13" V 10330 4250 50  0000 C CNN
F 1 "330" V 10250 4250 50  0000 C CNN
F 2 "Resistors_ThroughHole:R_Axial_DIN0207_L6.3mm_D2.5mm_P10.16mm_Horizontal" V 10180 4250 50  0001 C CNN
F 3 "" H 10250 4250 50  0001 C CNN
	1    10250 4250
	1    0    0    -1  
$EndComp
$Comp
L R R14
U 1 1 596FF3FC
P 10600 4250
F 0 "R14" V 10680 4250 50  0000 C CNN
F 1 "330" V 10600 4250 50  0000 C CNN
F 2 "Resistors_ThroughHole:R_Axial_DIN0207_L6.3mm_D2.5mm_P10.16mm_Horizontal" V 10530 4250 50  0001 C CNN
F 3 "" H 10600 4250 50  0001 C CNN
	1    10600 4250
	1    0    0    -1  
$EndComp
$Comp
L 3.3V #M022
U 1 1 596FF502
P 10600 3900
F 0 "#M022" H 10600 3900 45  0001 L BNN
F 1 "3.3V" H 10540 3940 45  0000 L BNN
F 2 "" H 10600 3900 60  0001 C CNN
F 3 "" H 10600 3900 60  0001 C CNN
	1    10600 3900
	1    0    0    -1  
$EndComp
$Comp
L 3.3V #M023
U 1 1 596FF57C
P 10250 3900
F 0 "#M023" H 10250 3900 45  0001 L BNN
F 1 "3.3V" H 10190 3940 45  0000 L BNN
F 2 "" H 10250 3900 60  0001 C CNN
F 3 "" H 10250 3900 60  0001 C CNN
	1    10250 3900
	1    0    0    -1  
$EndComp
$Comp
L 3.3V #M024
U 1 1 596FF5F6
P 9900 3900
F 0 "#M024" H 9900 3900 45  0001 L BNN
F 1 "3.3V" H 9840 3940 45  0000 L BNN
F 2 "" H 9900 3900 60  0001 C CNN
F 3 "" H 9900 3900 60  0001 C CNN
	1    9900 3900
	1    0    0    -1  
$EndComp
$Comp
L 3.3V #M025
U 1 1 596FF670
P 9550 3900
F 0 "#M025" H 9550 3900 45  0001 L BNN
F 1 "3.3V" H 9490 3940 45  0000 L BNN
F 2 "" H 9550 3900 60  0001 C CNN
F 3 "" H 9550 3900 60  0001 C CNN
	1    9550 3900
	1    0    0    -1  
$EndComp
$Comp
L Earth #PWR026
U 1 1 596FF6EA
P 9550 4900
F 0 "#PWR026" H 9550 4650 50  0001 C CNN
F 1 "Earth" H 9550 4750 50  0001 C CNN
F 2 "" H 9550 4900 50  0001 C CNN
F 3 "" H 9550 4900 50  0001 C CNN
	1    9550 4900
	1    0    0    -1  
$EndComp
$Comp
L Earth #PWR027
U 1 1 596FFAB7
P 9900 4900
F 0 "#PWR027" H 9900 4650 50  0001 C CNN
F 1 "Earth" H 9900 4750 50  0001 C CNN
F 2 "" H 9900 4900 50  0001 C CNN
F 3 "" H 9900 4900 50  0001 C CNN
	1    9900 4900
	1    0    0    -1  
$EndComp
$Comp
L Earth #PWR028
U 1 1 596FFCC8
P 10250 4900
F 0 "#PWR028" H 10250 4650 50  0001 C CNN
F 1 "Earth" H 10250 4750 50  0001 C CNN
F 2 "" H 10250 4900 50  0001 C CNN
F 3 "" H 10250 4900 50  0001 C CNN
	1    10250 4900
	1    0    0    -1  
$EndComp
$Comp
L Earth #PWR029
U 1 1 596FFD42
P 10600 4900
F 0 "#PWR029" H 10600 4650 50  0001 C CNN
F 1 "Earth" H 10600 4750 50  0001 C CNN
F 2 "" H 10600 4900 50  0001 C CNN
F 3 "" H 10600 4900 50  0001 C CNN
	1    10600 4900
	1    0    0    -1  
$EndComp
Wire Wire Line
	10600 4900 10600 4800
Wire Wire Line
	10250 4900 10250 4800
Wire Wire Line
	9900 4900 9900 4800
Wire Wire Line
	9550 4900 9550 4800
Wire Wire Line
	9550 4500 9550 4400
Wire Wire Line
	9900 4400 9900 4500
Wire Wire Line
	10250 4400 10250 4500
Wire Wire Line
	10600 4500 10600 4400
Wire Wire Line
	10600 4100 10600 4000
Wire Wire Line
	10250 4100 10250 4000
Wire Wire Line
	9900 4100 9900 4000
Wire Wire Line
	9550 4000 9550 4100
$EndSCHEMATC
