(export (version D)
  (design
    (source "C:\\Users\\Diego\\Documents\\UTN\\6° año - 2017\\Proyecto Final\\uQA3\\hardware\\shield_wifi\\Shield_WiFi.sch")
    (date "20/07/2017 10:50:12")
    (tool "Eeschema 4.0.6")
    (sheet (number 1) (name /) (tstamps /)
      (title_block
        (title "Shield WiFi")
        (company)
        (rev)
        (date 2017-07-16)
        (source Shield_WiFi.sch)
        (comment (number 1) (value ""))
        (comment (number 2) (value ""))
        (comment (number 3) (value ""))
        (comment (number 4) (value "")))))
  (components
    (comp (ref J2)
      (value Hembra)
      (footprint Socket_Strips:Socket_Strip_Straight_1x15_Pitch2.54mm)
      (libsource (lib conn) (part CONN_01X15))
      (sheetpath (names /) (tstamps /))
      (tstamp 596A09AA))
    (comp (ref J1)
      (value Hembra)
      (footprint Socket_Strips:Socket_Strip_Straight_1x15_Pitch2.54mm)
      (libsource (lib conn) (part CONN_01X15))
      (sheetpath (names /) (tstamps /))
      (tstamp 596A09D5))
    (comp (ref Q3)
      (value Si2302)
      (footprint TO_SOT_Packages_SMD:SOT-23)
      (libsource (lib device) (part Q_NMOS_GSD))
      (sheetpath (names /) (tstamps /))
      (tstamp 596BEE6B))
    (comp (ref R5)
      (value 100)
      (footprint Resistors_ThroughHole:R_Axial_DIN0207_L6.3mm_D2.5mm_P10.16mm_Horizontal)
      (libsource (lib device) (part R))
      (sheetpath (names /) (tstamps /))
      (tstamp 596BEEA4))
    (comp (ref R7)
      (value 10K)
      (footprint Resistors_ThroughHole:R_Axial_DIN0207_L6.3mm_D2.5mm_P10.16mm_Horizontal)
      (libsource (lib device) (part R))
      (sheetpath (names /) (tstamps /))
      (tstamp 596BEF1B))
    (comp (ref D3)
      (value 1N4148)
      (footprint Diodes_ThroughHole:D_DO-41_SOD81_P10.16mm_Horizontal)
      (libsource (lib device) (part D))
      (sheetpath (names /) (tstamps /))
      (tstamp 596BEFB5))
    (comp (ref M3)
      (value CW)
      (footprint Pin_Headers:Pin_Header_Straight_1x02_Pitch2.54mm)
      (libsource (lib motors) (part Motor_DC))
      (sheetpath (names /) (tstamps /))
      (tstamp 596BF070))
    (comp (ref Q4)
      (value Si2302)
      (footprint TO_SOT_Packages_SMD:SOT-23)
      (libsource (lib device) (part Q_NMOS_GSD))
      (sheetpath (names /) (tstamps /))
      (tstamp 596BF9ED))
    (comp (ref R6)
      (value 100)
      (footprint Resistors_ThroughHole:R_Axial_DIN0207_L6.3mm_D2.5mm_P10.16mm_Horizontal)
      (libsource (lib device) (part R))
      (sheetpath (names /) (tstamps /))
      (tstamp 596BF9F3))
    (comp (ref R8)
      (value 10K)
      (footprint Resistors_ThroughHole:R_Axial_DIN0207_L6.3mm_D2.5mm_P10.16mm_Horizontal)
      (libsource (lib device) (part R))
      (sheetpath (names /) (tstamps /))
      (tstamp 596BF9F9))
    (comp (ref D4)
      (value 1N4148)
      (footprint Diodes_ThroughHole:D_DO-41_SOD81_P10.16mm_Horizontal)
      (libsource (lib device) (part D))
      (sheetpath (names /) (tstamps /))
      (tstamp 596BF9FF))
    (comp (ref M4)
      (value CCW)
      (footprint Pin_Headers:Pin_Header_Straight_1x02_Pitch2.54mm)
      (libsource (lib motors) (part Motor_DC))
      (sheetpath (names /) (tstamps /))
      (tstamp 596BFA05))
    (comp (ref Q1)
      (value Si2302)
      (footprint TO_SOT_Packages_SMD:SOT-23)
      (libsource (lib device) (part Q_NMOS_GSD))
      (sheetpath (names /) (tstamps /))
      (tstamp 596BFC3A))
    (comp (ref R1)
      (value 100)
      (footprint Resistors_ThroughHole:R_Axial_DIN0207_L6.3mm_D2.5mm_P10.16mm_Horizontal)
      (libsource (lib device) (part R))
      (sheetpath (names /) (tstamps /))
      (tstamp 596BFC40))
    (comp (ref R3)
      (value 10K)
      (footprint Resistors_ThroughHole:R_Axial_DIN0207_L6.3mm_D2.5mm_P10.16mm_Horizontal)
      (libsource (lib device) (part R))
      (sheetpath (names /) (tstamps /))
      (tstamp 596BFC46))
    (comp (ref D1)
      (value 1N4148)
      (footprint Diodes_ThroughHole:D_DO-41_SOD81_P10.16mm_Horizontal)
      (libsource (lib device) (part D))
      (sheetpath (names /) (tstamps /))
      (tstamp 596BFC4C))
    (comp (ref M1)
      (value CW)
      (footprint Pin_Headers:Pin_Header_Straight_1x02_Pitch2.54mm)
      (libsource (lib motors) (part Motor_DC))
      (sheetpath (names /) (tstamps /))
      (tstamp 596BFC52))
    (comp (ref Q2)
      (value Si2302)
      (footprint TO_SOT_Packages_SMD:SOT-23)
      (libsource (lib device) (part Q_NMOS_GSD))
      (sheetpath (names /) (tstamps /))
      (tstamp 596BFC79))
    (comp (ref R2)
      (value 100)
      (footprint Resistors_ThroughHole:R_Axial_DIN0207_L6.3mm_D2.5mm_P10.16mm_Horizontal)
      (libsource (lib device) (part R))
      (sheetpath (names /) (tstamps /))
      (tstamp 596BFC7F))
    (comp (ref R4)
      (value 10K)
      (footprint Resistors_ThroughHole:R_Axial_DIN0207_L6.3mm_D2.5mm_P10.16mm_Horizontal)
      (libsource (lib device) (part R))
      (sheetpath (names /) (tstamps /))
      (tstamp 596BFC85))
    (comp (ref D2)
      (value 1N4148)
      (footprint Diodes_ThroughHole:D_DO-41_SOD81_P10.16mm_Horizontal)
      (libsource (lib device) (part D))
      (sheetpath (names /) (tstamps /))
      (tstamp 596BFC8B))
    (comp (ref M2)
      (value CCW)
      (footprint Pin_Headers:Pin_Header_Straight_1x02_Pitch2.54mm)
      (libsource (lib motors) (part Motor_DC))
      (sheetpath (names /) (tstamps /))
      (tstamp 596BFC91))
    (comp (ref J3)
      (value Bateria)
      (footprint Connectors_Molex:Molex_MicroLatch-53254-0270_02x2.00mm_Angled)
      (libsource (lib conn) (part CONN_01X02))
      (sheetpath (names /) (tstamps /))
      (tstamp 596C2F01))
    (comp (ref R9)
      (value "1ohm - 0.5W")
      (footprint Resistors_ThroughHole:R_Axial_DIN0207_L6.3mm_D2.5mm_P10.16mm_Horizontal)
      (libsource (lib device) (part R))
      (sheetpath (names /) (tstamps /))
      (tstamp 596C55CA))
    (comp (ref D5)
      (value 1N4728)
      (footprint Diodes_ThroughHole:D_DO-41_SOD81_P10.16mm_Horizontal)
      (libsource (lib device) (part D_Zener))
      (sheetpath (names /) (tstamps /))
      (tstamp 596C60AE))
    (comp (ref D6)
      (value 1N4007)
      (footprint Diodes_ThroughHole:D_DO-41_SOD81_P10.16mm_Horizontal)
      (libsource (lib diode) (part 1N4007))
      (sheetpath (names /) (tstamps /))
      (tstamp 596F8CA4))
    (comp (ref R10)
      (value "1ohm - 0.5W")
      (footprint Resistors_ThroughHole:R_Axial_DIN0207_L6.3mm_D2.5mm_P10.16mm_Horizontal)
      (libsource (lib device) (part R))
      (sheetpath (names /) (tstamps /))
      (tstamp 596FB4D2))
    (comp (ref J5)
      (value Macho)
      (footprint Pin_Headers:Pin_Header_Straight_1x15_Pitch2.54mm)
      (libsource (lib conn) (part CONN_01X15))
      (sheetpath (names /) (tstamps /))
      (tstamp 596FA5CD))
    (comp (ref J4)
      (value Macho)
      (footprint Pin_Headers:Pin_Header_Straight_1x15_Pitch2.54mm)
      (libsource (lib conn) (part CONN_01X15))
      (sheetpath (names /) (tstamps /))
      (tstamp 596FA5D3))
    (comp (ref D8)
      (value LED_ROJO)
      (footprint LEDs:LED_D5.0mm)
      (libsource (lib device) (part LED))
      (sheetpath (names /) (tstamps /))
      (tstamp 596FE02A))
    (comp (ref D9)
      (value LED_AZUL)
      (footprint LEDs:LED_D5.0mm)
      (libsource (lib device) (part LED))
      (sheetpath (names /) (tstamps /))
      (tstamp 596FE233))
    (comp (ref D10)
      (value LED_AZUL)
      (footprint LEDs:LED_D5.0mm)
      (libsource (lib device) (part LED))
      (sheetpath (names /) (tstamps /))
      (tstamp 596FE2A6))
    (comp (ref D7)
      (value LED_ROJO)
      (footprint LEDs:LED_D5.0mm)
      (libsource (lib device) (part LED))
      (sheetpath (names /) (tstamps /))
      (tstamp 596FE31E))
    (comp (ref R11)
      (value 330)
      (footprint Resistors_ThroughHole:R_Axial_DIN0207_L6.3mm_D2.5mm_P10.16mm_Horizontal)
      (libsource (lib device) (part R))
      (sheetpath (names /) (tstamps /))
      (tstamp 596FF1B2))
    (comp (ref R12)
      (value 330)
      (footprint Resistors_ThroughHole:R_Axial_DIN0207_L6.3mm_D2.5mm_P10.16mm_Horizontal)
      (libsource (lib device) (part R))
      (sheetpath (names /) (tstamps /))
      (tstamp 596FF2FB))
    (comp (ref R13)
      (value 330)
      (footprint Resistors_ThroughHole:R_Axial_DIN0207_L6.3mm_D2.5mm_P10.16mm_Horizontal)
      (libsource (lib device) (part R))
      (sheetpath (names /) (tstamps /))
      (tstamp 596FF37C))
    (comp (ref R14)
      (value 330)
      (footprint Resistors_ThroughHole:R_Axial_DIN0207_L6.3mm_D2.5mm_P10.16mm_Horizontal)
      (libsource (lib device) (part R))
      (sheetpath (names /) (tstamps /))
      (tstamp 596FF3FC)))
  (libparts
    (libpart (lib diode) (part 1N4001)
      (aliases
        (alias 1N4002)
        (alias 1N4003)
        (alias 1N4004)
        (alias 1N4005)
        (alias 1N4006)
        (alias 1N4007)
        (alias BA157)
        (alias BA158)
        (alias BA159))
      (description "50V 1A General Purpose Rectifier Diode, DO-41")
      (docs http://www.vishay.com/docs/88503/1n4001.pdf)
      (footprints
        (fp D*DO?41*)
        (fp D*DO?204AL*)
        (fp D*SOD81*))
      (fields
        (field (name Reference) D)
        (field (name Value) 1N4001)
        (field (name Footprint) Diodes_THT:D_DO-41_SOD81_Horizontal_RM10))
      (pins
        (pin (num 1) (name K) (type passive))
        (pin (num 2) (name A) (type passive))))
    (libpart (lib conn) (part CONN_01X02)
      (description "Connector, single row, 01x02, pin header")
      (footprints
        (fp Pin_Header_Straight_1X*)
        (fp Pin_Header_Angled_1X*)
        (fp Socket_Strip_Straight_1X*)
        (fp Socket_Strip_Angled_1X*))
      (fields
        (field (name Reference) J)
        (field (name Value) CONN_01X02))
      (pins
        (pin (num 1) (name P1) (type passive))
        (pin (num 2) (name P2) (type passive))))
    (libpart (lib conn) (part CONN_01X15)
      (description "Connector, single row, 01x15, pin header")
      (footprints
        (fp Pin_Header_Straight_1X*)
        (fp Pin_Header_Angled_1X*)
        (fp Socket_Strip_Straight_1X*)
        (fp Socket_Strip_Angled_1X*))
      (fields
        (field (name Reference) J)
        (field (name Value) CONN_01X15))
      (pins
        (pin (num 1) (name P1) (type passive))
        (pin (num 2) (name P2) (type passive))
        (pin (num 3) (name P3) (type passive))
        (pin (num 4) (name P4) (type passive))
        (pin (num 5) (name P5) (type passive))
        (pin (num 6) (name P6) (type passive))
        (pin (num 7) (name P7) (type passive))
        (pin (num 8) (name P8) (type passive))
        (pin (num 9) (name P9) (type passive))
        (pin (num 10) (name P10) (type passive))
        (pin (num 11) (name P11) (type passive))
        (pin (num 12) (name P12) (type passive))
        (pin (num 13) (name P13) (type passive))
        (pin (num 14) (name P14) (type passive))
        (pin (num 15) (name P15) (type passive))))
    (libpart (lib device) (part D)
      (description Diode)
      (footprints
        (fp TO-???*)
        (fp *SingleDiode)
        (fp *_Diode_*)
        (fp *SingleDiode*)
        (fp D_*))
      (fields
        (field (name Reference) D)
        (field (name Value) D))
      (pins
        (pin (num 1) (name K) (type passive))
        (pin (num 2) (name A) (type passive))))
    (libpart (lib device) (part D_Zener)
      (description "Zener Diode")
      (docs https://en.wikipedia.org/wiki/Zener_diode)
      (footprints
        (fp TO-???*)
        (fp *SingleDiode)
        (fp *_Diode_*)
        (fp *SingleDiode*)
        (fp D_*))
      (fields
        (field (name Reference) D)
        (field (name Value) D_Zener))
      (pins
        (pin (num 1) (name K) (type passive))
        (pin (num 2) (name A) (type passive))))
    (libpart (lib device) (part LED)
      (description "LED generic")
      (footprints
        (fp LED*))
      (fields
        (field (name Reference) D)
        (field (name Value) LED))
      (pins
        (pin (num 1) (name K) (type passive))
        (pin (num 2) (name A) (type passive))))
    (libpart (lib motors) (part Motor_DC)
      (description "DC Motor")
      (footprints
        (fp Pin_Headers:Pin_Header_Straight_1x02)
        (fp Connect:bornier2)
        (fp TerminalBlock*2pol))
      (fields
        (field (name Reference) M)
        (field (name Value) Motor_DC))
      (pins
        (pin (num 1) (name +) (type passive))
        (pin (num 2) (name -) (type passive))))
    (libpart (lib device) (part Q_NMOS_GSD)
      (description "Transistor N-MOSFETwith substrate diode (general)")
      (fields
        (field (name Reference) Q)
        (field (name Value) Q_NMOS_GSD))
      (pins
        (pin (num 1) (name G) (type input))
        (pin (num 2) (name S) (type passive))
        (pin (num 3) (name D) (type passive))))
    (libpart (lib device) (part R)
      (description Resistor)
      (footprints
        (fp R_*)
        (fp R_*))
      (fields
        (field (name Reference) R)
        (field (name Value) R))
      (pins
        (pin (num 1) (name ~) (type passive))
        (pin (num 2) (name ~) (type passive)))))
  (libraries
    (library (logical device)
      (uri "C:\\Program Files\\KiCad\\share\\kicad\\library\\device.lib"))
    (library (logical conn)
      (uri "C:\\Program Files\\KiCad\\share\\kicad\\library\\conn.lib"))
    (library (logical diode)
      (uri "C:\\Program Files\\KiCad\\share\\kicad\\library\\diode.lib"))
    (library (logical motors)
      (uri "C:\\Program Files\\KiCad\\share\\kicad\\library\\motors.lib")))
  (nets
    (net (code 1) (name "Net-(R10-Pad2)")
      (node (ref R9) (pin 1))
      (node (ref R10) (pin 2)))
    (net (code 2) (name +BATT)
      (node (ref R9) (pin 2))
      (node (ref M2) (pin 1))
      (node (ref M1) (pin 1))
      (node (ref D1) (pin 1))
      (node (ref J3) (pin 2))
      (node (ref D4) (pin 1))
      (node (ref M4) (pin 1))
      (node (ref M3) (pin 1))
      (node (ref D3) (pin 1))
      (node (ref D6) (pin 2))
      (node (ref D2) (pin 1)))
    (net (code 3) (name 3V3)
      (node (ref D5) (pin 1))
      (node (ref R14) (pin 1))
      (node (ref J2) (pin 15))
      (node (ref J1) (pin 11))
      (node (ref J2) (pin 6))
      (node (ref R13) (pin 1))
      (node (ref R11) (pin 1))
      (node (ref R12) (pin 1))
      (node (ref R10) (pin 1))
      (node (ref J5) (pin 6))
      (node (ref D6) (pin 1))
      (node (ref J4) (pin 11))
      (node (ref J5) (pin 15)))
    (net (code 4) (name D3)
      (node (ref R5) (pin 2))
      (node (ref J2) (pin 4))
      (node (ref J5) (pin 4)))
    (net (code 5) (name D2)
      (node (ref J5) (pin 3))
      (node (ref J2) (pin 3))
      (node (ref R1) (pin 2)))
    (net (code 6) (name D1)
      (node (ref J2) (pin 2))
      (node (ref J5) (pin 2)))
    (net (code 7) (name D0)
      (node (ref J2) (pin 1))
      (node (ref J5) (pin 1)))
    (net (code 8) (name SD1)
      (node (ref J1) (pin 6))
      (node (ref J4) (pin 6)))
    (net (code 9) (name SD2)
      (node (ref J1) (pin 5))
      (node (ref J4) (pin 5)))
    (net (code 10) (name SD3)
      (node (ref J4) (pin 4))
      (node (ref J1) (pin 4)))
    (net (code 11) (name RSV1)
      (node (ref J1) (pin 3))
      (node (ref J4) (pin 3)))
    (net (code 12) (name RSV0)
      (node (ref J4) (pin 2))
      (node (ref J1) (pin 2)))
    (net (code 13) (name A0)
      (node (ref J1) (pin 1))
      (node (ref J4) (pin 1)))
    (net (code 14) (name D5)
      (node (ref J2) (pin 8))
      (node (ref J5) (pin 8))
      (node (ref R2) (pin 2)))
    (net (code 15) (name GND)
      (node (ref R8) (pin 1))
      (node (ref J1) (pin 14))
      (node (ref Q4) (pin 2))
      (node (ref Q2) (pin 2))
      (node (ref R3) (pin 1))
      (node (ref J2) (pin 14))
      (node (ref J2) (pin 7))
      (node (ref Q1) (pin 2))
      (node (ref J1) (pin 10))
      (node (ref R4) (pin 1))
      (node (ref R7) (pin 1))
      (node (ref Q3) (pin 2))
      (node (ref D8) (pin 1))
      (node (ref J5) (pin 14))
      (node (ref J4) (pin 10))
      (node (ref D9) (pin 1))
      (node (ref J4) (pin 14))
      (node (ref D5) (pin 2))
      (node (ref D7) (pin 1))
      (node (ref J3) (pin 1))
      (node (ref D10) (pin 1))
      (node (ref J5) (pin 7)))
    (net (code 16) (name "Net-(Q2-Pad1)")
      (node (ref R2) (pin 1))
      (node (ref R4) (pin 2))
      (node (ref Q2) (pin 1)))
    (net (code 17) (name "Net-(D2-Pad2)")
      (node (ref M2) (pin 2))
      (node (ref D2) (pin 2))
      (node (ref Q2) (pin 3)))
    (net (code 18) (name D4)
      (node (ref J2) (pin 5))
      (node (ref J5) (pin 5)))
    (net (code 19) (name "Net-(D7-Pad2)")
      (node (ref R11) (pin 2))
      (node (ref D7) (pin 2)))
    (net (code 20) (name "Net-(D10-Pad2)")
      (node (ref R14) (pin 2))
      (node (ref D10) (pin 2)))
    (net (code 21) (name "Net-(D9-Pad2)")
      (node (ref R13) (pin 2))
      (node (ref D9) (pin 2)))
    (net (code 22) (name "Net-(D8-Pad2)")
      (node (ref D8) (pin 2))
      (node (ref R12) (pin 2)))
    (net (code 23) (name EN)
      (node (ref J1) (pin 12))
      (node (ref J4) (pin 12)))
    (net (code 24) (name RST)
      (node (ref J1) (pin 13))
      (node (ref J4) (pin 13)))
    (net (code 25) (name 5Vin)
      (node (ref J4) (pin 15))
      (node (ref J1) (pin 15)))
    (net (code 26) (name CLK)
      (node (ref J1) (pin 9))
      (node (ref J4) (pin 9)))
    (net (code 27) (name SD0)
      (node (ref J4) (pin 8))
      (node (ref J1) (pin 8)))
    (net (code 28) (name CMD)
      (node (ref J1) (pin 7))
      (node (ref J4) (pin 7)))
    (net (code 29) (name D10)
      (node (ref J2) (pin 13))
      (node (ref J5) (pin 13)))
    (net (code 30) (name D9)
      (node (ref J2) (pin 12))
      (node (ref J5) (pin 12)))
    (net (code 31) (name D8)
      (node (ref J2) (pin 11))
      (node (ref J5) (pin 11)))
    (net (code 32) (name D7)
      (node (ref J2) (pin 10))
      (node (ref J5) (pin 10)))
    (net (code 33) (name D6)
      (node (ref J5) (pin 9))
      (node (ref R6) (pin 2))
      (node (ref J2) (pin 9)))
    (net (code 34) (name "Net-(Q1-Pad1)")
      (node (ref Q1) (pin 1))
      (node (ref R1) (pin 1))
      (node (ref R3) (pin 2)))
    (net (code 35) (name "Net-(D1-Pad2)")
      (node (ref Q1) (pin 3))
      (node (ref D1) (pin 2))
      (node (ref M1) (pin 2)))
    (net (code 36) (name "Net-(Q3-Pad1)")
      (node (ref R7) (pin 2))
      (node (ref R5) (pin 1))
      (node (ref Q3) (pin 1)))
    (net (code 37) (name "Net-(D3-Pad2)")
      (node (ref M3) (pin 2))
      (node (ref D3) (pin 2))
      (node (ref Q3) (pin 3)))
    (net (code 38) (name "Net-(D4-Pad2)")
      (node (ref D4) (pin 2))
      (node (ref M4) (pin 2))
      (node (ref Q4) (pin 3)))
    (net (code 39) (name "Net-(Q4-Pad1)")
      (node (ref R6) (pin 1))
      (node (ref Q4) (pin 1))
      (node (ref R8) (pin 2)))))